tb_rv32i_full.vcd
$date
	Sun Jul 27 16:19:33 2025
$end
$version
	Icarus Verilog
$end
$timescale
	1ps
$end
$scope module tb_rv32i_full $end
$var wire 1 ! timer_interrupt $end
$var wire 8 " gpio_pins_tb [7:0] $end
$var reg 1 # clk $end
$var reg 1 $ rst $end
$var integer 32 % tests_failed [31:0] $end
$var integer 32 & tests_passed [31:0] $end
$scope module uut $end
$var wire 1 # clk $end
$var wire 1 ' data_mem_read_enable $end
$var wire 1 ( data_mem_write_enable $end
$var wire 1 ) gpio_read_enable $end
$var wire 1 * gpio_write_enable $end
$var wire 1 + is_gpio_access $end
$var wire 1 , is_timer_access $end
$var wire 32 - pc_target_jalr [31:0] $end
$var wire 1 $ rst $end
$var wire 1 . take_branch $end
$var wire 1 / timer_read_enable $end
$var wire 1 0 timer_write_enable $end
$var wire 32 1 write_back_data [31:0] $end
$var wire 32 2 timer_read_data [31:0] $end
$var wire 1 ! timer_interrupt $end
$var wire 5 3 rs2 [4:0] $end
$var wire 5 4 rs1 [4:0] $end
$var wire 1 5 reg_write $end
$var wire 32 6 reg_read_data2 [31:0] $end
$var wire 32 7 reg_read_data1 [31:0] $end
$var wire 5 8 rd [4:0] $end
$var wire 32 9 pc_target_imm [31:0] $end
$var wire 32 : pc_plus_4 [31:0] $end
$var wire 32 ; pc_next [31:0] $end
$var wire 32 < pc_current [31:0] $end
$var wire 7 = opcode [6:0] $end
$var wire 1 > mem_write $end
$var wire 1 ? mem_to_reg $end
$var wire 32 @ mem_read_data_from_data_mem [31:0] $end
$var wire 32 A mem_read_data [31:0] $end
$var wire 1 B mem_read $end
$var wire 1 C jump $end
$var wire 1 D is_data_mem_access $end
$var wire 32 E instruction [31:0] $end
$var wire 32 F imm_extended [31:0] $end
$var wire 32 G gpio_read_data [31:0] $end
$var wire 8 H gpio_pins [7:0] $end
$var wire 1 I funct7_bit5 $end
$var wire 3 J funct3 [2:0] $end
$var wire 1 K branch $end
$var wire 1 L alu_zero_flag $end
$var wire 1 M alu_src $end
$var wire 32 N alu_result [31:0] $end
$var wire 32 O alu_operand2 [31:0] $end
$var wire 32 P alu_operand1 [31:0] $end
$var wire 2 Q alu_op [1:0] $end
$var wire 4 R alu_control_signal [3:0] $end
$scope module alu_ctrl $end
$var wire 3 S funct3 [2:0] $end
$var wire 1 I funct7_bit5 $end
$var wire 2 T alu_op [1:0] $end
$var reg 4 U alu_control [3:0] $end
$upscope $end
$scope module alu_inst $end
$var wire 4 V alu_control [3:0] $end
$var wire 32 W operand1 [31:0] $end
$var wire 32 X operand2 [31:0] $end
$var wire 1 L zero $end
$var reg 32 Y result [31:0] $end
$upscope $end
$scope module ctrl_unit $end
$var wire 7 Z opcode [6:0] $end
$var reg 2 [ alu_op [1:0] $end
$var reg 1 M alu_src $end
$var reg 1 K branch $end
$var reg 1 C jump $end
$var reg 1 B mem_read $end
$var reg 1 ? mem_to_reg $end
$var reg 1 > mem_write $end
$var reg 1 5 reg_write $end
$upscope $end
$scope module data_mem $end
$var wire 32 \ address [31:0] $end
$var wire 1 # clk $end
$var wire 3 ] funct3 [2:0] $end
$var wire 1 ( write_enable $end
$var wire 32 ^ write_data [31:0] $end
$var reg 32 _ read_data [31:0] $end
$upscope $end
$scope module gpio_inst $end
$var wire 32 ` address [31:0] $end
$var wire 1 # clk $end
$var wire 1 $ rst $end
$var wire 1 * write_enable $end
$var wire 32 a write_data [31:0] $end
$var wire 32 b read_data [31:0] $end
$var wire 8 c gpio_pins [7:0] $end
$var reg 32 d gpio_data_reg [31:0] $end
$var reg 32 e gpio_dir_reg [31:0] $end
$scope begin gpio_pin_control[0] $end
$upscope $end
$scope begin gpio_pin_control[1] $end
$upscope $end
$scope begin gpio_pin_control[2] $end
$upscope $end
$scope begin gpio_pin_control[3] $end
$upscope $end
$scope begin gpio_pin_control[4] $end
$upscope $end
$scope begin gpio_pin_control[5] $end
$upscope $end
$scope begin gpio_pin_control[6] $end
$upscope $end
$scope begin gpio_pin_control[7] $end
$upscope $end
$upscope $end
$scope module imm_gen $end
$var wire 7 f opcode [6:0] $end
$var wire 32 g instruction [31:0] $end
$var reg 32 h imm_extended [31:0] $end
$upscope $end
$scope module instr_mem $end
$var wire 32 i instruction [31:0] $end
$var wire 32 j address [31:0] $end
$upscope $end
$scope module pc_reg $end
$var wire 1 # clk $end
$var wire 32 k pc_in [31:0] $end
$var wire 1 $ rst $end
$var reg 32 l pc_out [31:0] $end
$upscope $end
$scope module reg_file $end
$var wire 1 # clk $end
$var wire 5 m read_reg1 [4:0] $end
$var wire 5 n read_reg2 [4:0] $end
$var wire 32 o write_data [31:0] $end
$var wire 1 5 write_enable $end
$var wire 5 p write_reg [4:0] $end
$var wire 32 q read_data2 [31:0] $end
$var wire 32 r read_data1 [31:0] $end
$upscope $end
$scope module timer_inst $end
$var wire 32 s address [31:0] $end
$var wire 1 # clk $end
$var wire 1 $ rst $end
$var wire 32 t write_data [31:0] $end
$var wire 1 0 write_enable $end
$var wire 32 u read_data [31:0] $end
$var wire 1 ! interrupt $end
$var reg 64 v mtime_reg [63:0] $end
$var reg 64 w mtimecmp_reg [63:0] $end
$upscope $end
$upscope $end
$scope task check_mem $end
$var reg 32 x expected [31:0] $end
$var reg 10 y mem_addr [11:2] $end
$var reg 32 z read_value [31:0] $end
$var reg 256 { test_name [255:0] $end
$upscope $end
$scope task check_reg $end
$var reg 32 | expected [31:0] $end
$var reg 5 } reg_addr [4:0] $end
$var reg 256 ~ test_name [255:0] $end
$upscope $end
$upscope $end
$enddefinitions $end
#0
$dumpvars
bx ~
bx }
bx |
bx {
bx z
bx y
bx x
bx w
b0 v
bx u
bx t
b1010 s
b0 r
bx q
b1 p
b1010 o
b1010 n
b0 m
b0 l
b100 k
b0 j
b101000000000000010010011 i
b1010 h
b101000000000000010010011 g
b10011 f
b0 e
b0 d
bz c
bx b
bx a
b1010 `
bx _
bx ^
b0 ]
b1010 \
b0 [
b10011 Z
b1010 Y
b1010 X
b0 W
b10 V
b10 U
b0 T
b0 S
b10 R
b0 Q
b0 P
b1010 O
b1010 N
1M
0L
0K
b0 J
0I
bz H
bx G
b1010 F
b101000000000000010010011 E
1D
0C
0B
bx A
bx @
0?
0>
b10011 =
b0 <
b100 ;
b100 :
b1010 9
b1 8
b0 7
bx 6
15
b0 4
b1010 3
bx 2
b1010 1
00
0/
0.
b1010 -
0,
0+
0*
0)
0(
0'
b0 &
b0 %
1$
0#
bz "
x!
$end
#5000
1#
#10000
0#
#15000
1#
#20000
0#
0$
#25000
b11111111111111111111111111101100 1
b11111111111111111111111111101100 o
b11111111111111111111111111101100 -
b11111111111111111111111111101100 N
b11111111111111111111111111101100 Y
b11111111111111111111111111101100 \
b11111111111111111111111111101100 `
b11111111111111111111111111101100 s
b11111111111111111111111111101100 O
b11111111111111111111111111101100 X
b1000 ;
b1000 k
1I
b10 8
b10 p
b1100 3
b1100 n
b11111111111111111111111111101100 F
b11111111111111111111111111101100 h
b11111110110000000000000100010011 E
b11111110110000000000000100010011 g
b11111110110000000000000100010011 i
b1 v
b11111111111111111111111111110000 9
b1000 :
b100 <
b100 j
b100 l
1#
#30000
0#
#35000
b1111 1
b1111 o
b1010 P
b1010 W
b1111 -
b1111 N
b1111 Y
b1111 \
b1111 `
b1111 s
b1010 7
b1010 r
b101 O
b101 X
b1100 ;
b1100 k
0I
b11 8
b11 p
b101 3
b101 n
b1 4
b1 m
b101 F
b101 h
b10100001000000110010011 E
b10100001000000110010011 g
b10100001000000110010011 i
b1101 9
b1100 :
b1000 <
b1000 j
b1000 l
b10 v
1#
#40000
0#
b1 &
b1000001010001000100010001001001001000000111001101100101011101000111010101110000001000000111100000110010 ~
b11111111111111111111111111101100 |
b10 }
#45000
b1 1
b1 o
b0xxxxxxxx A
b11111111111111111111111111101100 P
b11111111111111111111111111101100 W
0L
b1 -
b1 N
b1 Y
b1 \
b1 `
b1 s
b111 R
b111 U
b111 V
b0xxxxxxxx @
b0xxxxxxxx _
b11111111111111111111111111101100 7
b11111111111111111111111111101100 r
b1010 O
b1010 X
b10000 ;
b10000 k
b100 J
b100 S
b100 ]
b100 8
b100 p
b1010 3
b1010 n
b10 4
b10 m
b1010 F
b1010 h
b101000010100001000010011 E
b101000010100001000010011 g
b101000010100001000010011 i
b11 v
b10110 9
b10000 :
b1100 <
b1100 j
b1100 l
1#
#50000
0#
b10 &
b1000001010001000100010001001001 ~
b1111 |
b11 }
#55000
b1111111111111111111111 1
b1111111111111111111111 o
b0xxxxxxxxxxxxxxxx A
b1111111111111111111111 -
b1111111111111111111111 N
b1111111111111111111111 Y
b1111111111111111111111 \
b1111111111111111111111 `
b1111111111111111111111 s
b100 R
b100 U
b100 V
b0xxxxxxxxxxxxxxxx @
b0xxxxxxxxxxxxxxxx _
b10100 ;
b10100 k
b101 J
b101 S
b101 ]
b101 8
b101 p
b101000010101001010010011 E
b101000010101001010010011 g
b101000010101001010010011 i
b11010 9
b10100 :
b10000 <
b10000 j
b10000 l
b100 v
1#
#60000
0#
b11 &
b1010011010011000101010001001001 ~
b1 |
b100 }
#65000
b0 1
b0 o
b0xxxxxxxx A
b1010 P
b1010 W
1L
b0 -
b0 N
b0 Y
b0 \
b0 `
b0 s
b111 R
b111 U
b111 V
b0xxxxxxxx @
b0xxxxxxxx _
b1010 7
b1010 r
b11111111111111111111111100001111 O
b11111111111111111111111100001111 X
b11000 ;
b11000 k
1I
b100 J
b100 S
b100 ]
b110 8
b110 p
b1111 3
b1111 n
b1 4
b1 m
b11111111111111111111111100001111 F
b11111111111111111111111100001111 h
b11110000111100001100001100010011 E
b11110000111100001100001100010011 g
b11110000111100001100001100010011 i
b101 v
b11111111111111111111111100100011 9
b11000 :
b10100 <
b10100 j
b10100 l
1#
#70000
0#
b1 %
b101001101001100010101000100100101010101 ~
b0 |
b101 }
#75000
b11111111111111111111111100001111 1
b11111111111111111111111100001111 o
bx A
0L
b11111111111111111111111100001111 -
b11111111111111111111111100001111 N
b11111111111111111111111100001111 Y
b11111111111111111111111100001111 \
b11111111111111111111111100001111 `
b11111111111111111111111100001111 s
b1 R
b1 U
b1 V
bx @
bx _
b11100 ;
b11100 k
b110 J
b110 S
b110 ]
b111 8
b111 p
b11110000111100001110001110010011 E
b11110000111100001110001110010011 g
b11110000111100001110001110010011 i
b11111111111111111111111100100111 9
b11100 :
b11000 <
b11000 j
b11000 l
b110 v
1#
#80000
0#
b10 %
b1011000010011110101001001001001 ~
b11111111111111111111111100000101 |
b110 }
#85000
b1010 1
b1010 o
b1010 -
b1010 N
b1010 Y
b1010 \
b1010 `
b1010 s
b0 R
b0 U
b0 V
b100000 ;
b100000 k
b111 J
b111 S
b111 ]
b1000 8
b1000 p
b11110000111100001111010000010011 E
b11110000111100001111010000010011 g
b11110000111100001111010000010011 i
b111 v
b11111111111111111111111100101011 9
b100000 :
b11100 <
b11100 j
b11100 l
1#
#90000
0#
b100 &
b10011110101001001001001 ~
b11111111111111111111111100001111 |
b111 }
#95000
b101000 1
b101000 o
b101000 -
b101000 N
b101000 Y
b101000 \
b101000 `
b101000 s
b11 R
b11 U
b11 V
b11111111111111111111111111101100 6
b11111111111111111111111111101100 ^
b11111111111111111111111111101100 a
b11111111111111111111111111101100 q
b11111111111111111111111111101100 t
b10 O
b10 X
b100100 ;
b100100 k
0I
b1 J
b1 S
b1 ]
b1001 8
b1001 p
b10 3
b10 n
b10 F
b10 h
b1000001001010010010011 E
b1000001001010010010011 g
b1000001001010010010011 i
b100010 9
b100100 :
b100000 <
b100000 j
b100000 l
b1000 v
1#
#100000
0#
b101 &
b1000001010011100100010001001001 ~
b1010 |
b1000 }
#105000
b10 1
b10 o
b0xxxxxxxxxxxxxxxx A
b10 -
b10 N
b10 Y
b10 \
b10 `
b10 s
b100 R
b100 U
b100 V
b0xxxxxxxxxxxxxxxx @
b0xxxxxxxxxxxxxxxx _
b101000 ;
b101000 k
b101 J
b101 S
b101 ]
b1010 8
b1010 p
b1000001101010100010011 E
b1000001101010100010011 g
b1000001101010100010011 i
b1001 v
b100110 9
b101000 :
b100100 <
b100100 j
b100100 l
1#
#110000
0#
b110 &
b1010011010011000100110001001001 ~
b101000 |
b1001 }
#115000
b11111111111111111111111111111011 1
b11111111111111111111111111111011 o
b11111111111111111111111111111011 -
b11111111111111111111111111111011 N
b11111111111111111111111111111011 Y
b11111111111111111111111111111011 \
b11111111111111111111111111111011 `
b11111111111111111111111111111011 s
b11111111111111111111111111101100 P
b11111111111111111111111111101100 W
b101 R
b101 U
b101 V
b11111111111111111111111111101100 7
b11111111111111111111111111101100 r
b10000000010 O
b10000000010 X
b101100 ;
b101100 k
1I
b1011 8
b1011 p
b10 4
b10 m
b10000000010 F
b10000000010 h
b1000000001000010101010110010011 E
b1000000001000010101010110010011 g
b1000000001000010101010110010011 i
b10000101010 9
b101100 :
b101000 <
b101000 j
b101000 l
b1010 v
1#
#120000
0#
b111 &
b1010011010100100100110001001001 ~
b10 |
b1010 }
#125000
b11111111111111111111111111110110 1
b11111111111111111111111111110110 o
bx A
b1010 P
b1010 W
b11111111111111111111111111110110 -
b11111111111111111111111111110110 N
b11111111111111111111111111110110 Y
b11111111111111111111111111110110 \
b11111111111111111111111111110110 `
b11111111111111111111111111110110 s
b10 R
b10 U
b10 V
bx @
bx _
b1010 7
b1010 r
b10 Q
b10 T
b10 [
15
0M
b11111111111111111111111111101100 O
b11111111111111111111111111101100 X
b110000 ;
b110000 k
b110011 f
0I
b0 J
b0 S
b0 ]
b1100 8
b1100 p
b1 4
b1 m
b110011 =
b110011 Z
bx F
bx h
b1000001000011000110011 E
b1000001000011000110011 g
b1000001000011000110011 i
b1011 v
bx 9
b110000 :
b101100 <
b101100 j
b101100 l
1#
#130000
0#
b1000 &
b1010011010100100100000101001001 ~
b11111111111111111111111111111011 |
b1011 }
#135000
b11110 1
b11110 o
b11110 -
b11110 N
b11110 Y
b11110 \
b11110 `
b11110 s
b110 R
b110 U
b110 V
b110100 ;
b110100 k
1I
b1101 8
b1101 p
b1000000001000001000011010110011 E
b1000000001000001000011010110011 g
b1000000001000001000011010110011 i
b110100 :
b110000 <
b110000 j
b110000 l
b1100 v
1#
#140000
0#
b1001 &
b10000010100010001000100 ~
b11111111111111111111111111110110 |
b1100 }
#145000
b11111111111111111111111111100110 1
b11111111111111111111111111100110 o
b11111111111111111111111111101100 P
b11111111111111111111111111101100 W
0L
b11111111111111111111111111100110 -
b11111111111111111111111111100110 N
b11111111111111111111111111100110 Y
b11111111111111111111111111100110 \
b11111111111111111111111111100110 `
b11111111111111111111111111100110 s
b1010 O
b1010 X
b1001 R
b1001 U
b1001 V
b1010 6
b1010 ^
b1010 a
b1010 q
b1010 t
b11111111111111111111111111101100 7
b11111111111111111111111111101100 r
b111000 ;
b111000 k
0I
b10 J
b10 S
b10 ]
b1110 8
b1110 p
b1 3
b1 n
b10 4
b10 m
b100010010011100110011 E
b100010010011100110011 g
b100010010011100110011 i
b1101 v
b111000 :
b110100 <
b110100 j
b110100 l
1#
#150000
0#
b1010 &
b10100110101010101000010 ~
b11110 |
b1101 }
#155000
b0 1
b0 o
1L
b0 -
b0 N
b0 Y
b0 \
b0 `
b0 s
b1000 R
b1000 U
b1000 V
b111100 ;
b111100 k
b11 J
b11 S
b11 ]
b1111 8
b1111 p
b100010011011110110011 E
b100010011011110110011 g
b100010011011110110011 i
b111100 :
b111000 <
b111000 j
b111000 l
b1110 v
1#
#160000
0#
b11 %
b10100110100110001010100 ~
b1 |
b1110 }
#165000
b0xxxxxxxx A
b1010 P
b1010 W
b11111111111111111111111111101100 O
b11111111111111111111111111101100 X
b111 R
b111 U
b111 V
b0xxxxxxxx @
b0xxxxxxxx _
b11111111111111111111111111101100 6
b11111111111111111111111111101100 ^
b11111111111111111111111111101100 a
b11111111111111111111111111101100 q
b11111111111111111111111111101100 t
b1010 7
b1010 r
b1000000 ;
b1000000 k
b100 J
b100 S
b100 ]
b10000 8
b10000 p
b10 3
b10 n
b1 4
b1 m
b1000001100100000110011 E
b1000001100100000110011 g
b1000001100100000110011 i
b1111 v
b1000000 :
b111100 <
b111100 j
b111100 l
1#
#170000
0#
b1011 &
b1010011010011000101010001010101 ~
b0 |
b1111 }
#175000
b11111111111111111111111111101110 1
b11111111111111111111111111101110 o
bx A
0L
b11111111111111111111111111101110 -
b11111111111111111111111111101110 N
b11111111111111111111111111101110 Y
b11111111111111111111111111101110 \
b11111111111111111111111111101110 `
b11111111111111111111111111101110 s
b1 R
b1 U
b1 V
bx @
bx _
b1000100 ;
b1000100 k
b110 J
b110 S
b110 ]
b10001 8
b10001 p
b1000001110100010110011 E
b1000001110100010110011 g
b1000001110100010110011 i
b1000100 :
b1000000 <
b1000000 j
b1000000 l
b10000 v
1#
#180000
0#
b100 %
b10110000100111101010010 ~
b11111111111111111111111111100110 |
b10000 }
#185000
b1000 1
b1000 o
b1000 -
b1000 N
b1000 Y
b1000 \
b1000 `
b1000 s
b0 R
b0 U
b0 V
b1001000 ;
b1001000 k
b111 J
b111 S
b111 ]
b10010 8
b10010 p
b1000001111100100110011 E
b1000001111100100110011 g
b1000001111100100110011 i
b10001 v
b1001000 :
b1000100 <
b1000100 j
b1000100 l
1#
#190000
0#
b1100 &
b100111101010010 ~
b11111111111111111111111111101110 |
b10001 }
#195000
b101000 1
b101000 o
b101000 -
b101000 N
b101000 Y
b101000 \
b101000 `
b101000 s
b10 O
b10 X
b11 R
b11 U
b11 V
b10 6
b10 ^
b10 a
b10 q
b10 t
b1001100 ;
b1001100 k
b1 J
b1 S
b1 ]
b10011 8
b10011 p
b1010 3
b1010 n
b101000001001100110110011 E
b101000001001100110110011 g
b101000001001100110110011 i
b1001100 :
b1001000 <
b1001000 j
b1001000 l
b10010 v
1#
#200000
0#
b1101 &
b10000010100111001000100 ~
b1000 |
b10010 }
#205000
xD
x+
x,
bx 1
bx o
xL
bx A
bx P
bx W
bx -
bx N
bx Y
bx \
bx `
bx s
b0 O
b0 X
b100 R
b100 U
b100 V
b0xxxxxxxxxxxxxxxx @
b0xxxxxxxxxxxxxxxx _
b0 6
b0 ^
b0 a
b0 q
b0 t
bx 7
bx r
b1010000 ;
b1010000 k
b101 J
b101 S
b101 ]
b10100 8
b10100 p
b0 3
b0 n
b10101 4
b10101 m
b10101101101000110011 E
b10101101101000110011 g
b10101101101000110011 i
b10011 v
b1010000 :
b1001100 <
b1001100 j
b1001100 l
1#
#210000
0#
b101 %
b10100110100110001001100 ~
b10100000000000 |
b10011 }
#215000
b0xxxxxxxxxxxxxxxx A
b11111111111111111111111111111011 1
b11111111111111111111111111111011 o
1D
0+
0,
0L
b11111111111111111111111111111011 -
b11111111111111111111111111111011 N
b11111111111111111111111111111011 Y
b11111111111111111111111111111011 \
b11111111111111111111111111111011 `
b11111111111111111111111111111011 s
b11111111111111111111111111101100 P
b11111111111111111111111111101100 W
b10 O
b10 X
b101 R
b101 U
b101 V
b10 6
b10 ^
b10 a
b10 q
b10 t
b11111111111111111111111111101100 7
b11111111111111111111111111101100 r
b1010100 ;
b1010100 k
1I
b10101 8
b10101 p
b1010 3
b1010 n
b10 4
b10 m
b1000000101000010101101010110011 E
b1000000101000010101101010110011 g
b1000000101000010101101010110011 i
b1010100 :
b1010000 <
b1010000 j
b1010000 l
b10100 v
1#
#220000
0#
b110 %
b10100110101001001001100 ~
b0 |
b10100 }
#225000
b11111111111111111111111111100000 1
b11111111111111111111111111100000 o
bx A
b0 P
b0 W
b11111111111111111111111111100000 -
b11111111111111111111111111100000 N
b11111111111111111111111111100000 Y
b11111111111111111111111111100000 \
b11111111111111111111111111100000 `
b11111111111111111111111111100000 s
1(
b11111111111111111111111111100000 O
b11111111111111111111111111100000 X
b110100 9
b11111111111111111111111111100000 F
b11111111111111111111111111100000 h
b1001 R
b1001 U
b1001 V
bx @
bx _
b11111111111111111111111111110110 6
b11111111111111111111111111110110 ^
b11111111111111111111111111110110 a
b11111111111111111111111111110110 q
b11111111111111111111111111110110 t
b0 7
b0 r
1>
1M
05
b0 Q
b0 T
b0 [
b1011000 ;
b1011000 k
b100011 f
b10 J
b10 S
b10 ]
b0 8
b0 p
b1100 3
b1100 n
b0 4
b0 m
b100011 =
b100011 Z
b11111110110000000010000000100011 E
b11111110110000000010000000100011 g
b11111110110000000010000000100011 i
b10101 v
b1011000 :
b1010100 <
b1010100 j
b1010100 l
1#
#230000
0#
b111 %
b10100110101001001000001 ~
b11111111111111111111111111111111 |
b10101 }
#235000
b0 1
b0 o
1L
b0 -
b0 N
b0 Y
b0 \
b0 `
b0 s
b11 R
b11 U
b11 V
b11110 6
b11110 ^
b11110 a
b11110 q
b11110 t
b100 O
b100 X
b1011100 ;
b1011100 k
0I
b1 J
b1 S
b1 ]
b100 8
b100 p
b1101 3
b1101 n
b100 F
b100 h
b110100000001001000100011 E
b110100000001001000100011 g
b110100000001001000100011 i
b1011100 9
b1011100 :
b1011000 <
b1011000 j
b1011000 l
b10110 v
1#
#240000
0#
b1000 %
b101001101010111 {
b11111111111111111111111111110110 x
b1111110000 y
#245000
b110 1
b110 o
0L
b110 -
b110 N
b110 Y
b110 \
b110 `
b110 s
bx A
b10 R
b10 U
b10 V
b1010 6
b1010 ^
b1010 a
b1010 q
b1010 t
b110 O
b110 X
b1100000 ;
b1100000 k
b0 J
b0 S
b0 ]
b110 8
b110 p
b1 3
b1 n
b110 F
b110 h
bx @
bx _
b100000000001100100011 E
b100000000001100100011 g
b100000000001100100011 i
b10111 v
b1100010 9
b1100000 :
b1011100 <
b1011100 j
b1011100 l
1#
#250000
0#
#255000
bx0000000000011110 1
bx0000000000011110 o
1L
1'
0(
b0 -
b0 N
b0 Y
b0 \
b0 `
b0 s
bx0000000000011110 A
b0 6
b0 ^
b0 a
b0 q
b0 t
b11 Q
b11 T
b11 [
1?
1B
15
0>
1M
b0 O
b0 X
b1100100 ;
b1100100 k
b11 f
b10 J
b10 S
b10 ]
b10110 8
b10110 p
b0 3
b0 n
b11 =
b11 Z
b0 F
b0 h
bx0000000000011110 @
bx0000000000011110 _
b10101100000011 E
b10101100000011 g
b10101100000011 i
b1100000 9
b1100100 :
b1100000 <
b1100000 j
b1100000 l
b11000 v
1#
#260000
0#
#265000
bx 1
bx o
bx A
0L
b100 -
b100 N
b100 Y
b100 \
b100 `
b100 s
bx @
bx _
b1 6
b1 ^
b1 a
b1 q
b1 t
b100 O
b100 X
b1101000 ;
b1101000 k
b1 J
b1 S
b1 ]
b10111 8
b10111 p
b100 3
b100 n
b100 F
b100 h
b10000000001101110000011 E
b10000000001101110000011 g
b10000000001101110000011 i
b11001 v
b1101000 9
b1101000 :
b1100100 <
b1100100 j
b1100100 l
1#
#270000
0#
b1001 %
b100110001010111 ~
b11111111111111111111111111110110 |
b10110 }
#275000
b0xxxxxxxxxxxxxxxx 1
b0xxxxxxxxxxxxxxxx o
b0xxxxxxxxxxxxxxxx A
b0xxxxxxxxxxxxxxxx @
b0xxxxxxxxxxxxxxxx _
b1101100 ;
b1101100 k
b101 J
b101 S
b101 ]
b11000 8
b11000 p
b10000000101110000000011 E
b10000000101110000000011 g
b10000000101110000000011 i
b1101100 9
b1101100 :
b1101000 <
b1101000 j
b1101000 l
b11010 v
1#
#280000
0#
b1010 %
b100110001001000 ~
b11110 |
b10111 }
#285000
b1010 1
b1010 o
b1010 A
b110 -
b110 N
b110 Y
b110 \
b110 `
b110 s
b1010 @
b1010 _
b0 6
b0 ^
b0 a
b0 q
b0 t
b110 O
b110 X
b1110000 ;
b1110000 k
b0 J
b0 S
b0 ]
b11001 8
b11001 p
b110 3
b110 n
b110 F
b110 h
b11000000000110010000011 E
b11000000000110010000011 g
b11000000000110010000011 i
b11011 v
b1110010 9
b1110000 :
b1101100 <
b1101100 j
b1101100 l
1#
#290000
0#
b1011 %
b10011000100100001010101 ~
b11000 }
#295000
b1110100 ;
b1110100 k
b100 J
b100 S
b100 ]
b11010 8
b11010 p
b11000000100110100000011 E
b11000000100110100000011 g
b11000000100110100000011 i
b1110110 9
b1110100 :
b1110000 <
b1110000 j
b1110000 l
b11100 v
1#
#300000
0#
b1110 &
b100110001000010 ~
b1010 |
b11001 }
#305000
bx A
b10101011110011011110000000000000 1
b10101011110011011110000000000000 o
0'
b10101011110011011110000000000000 -
b10101011110011011110000000000000 N
b10101011110011011110000000000000 Y
b10101011110011011110000000000000 \
b10101011110011011110000000000000 `
b10101011110011011110000000000000 s
bx @
bx _
bx 6
bx ^
bx a
bx q
bx t
bx 7
bx r
0B
15
0?
b11 Q
b11 T
b11 [
1M
b10101011110011011110000000000000 O
b10101011110011011110000000000000 X
b1111000 ;
b1111000 k
b110111 f
b110 J
b110 S
b110 ]
b11100 3
b11100 n
b11011 4
b11011 m
b110111 =
b110111 Z
b10101011110011011110000000000000 F
b10101011110011011110000000000000 h
b10101011110011011110110100110111 E
b10101011110011011110110100110111 g
b10101011110011011110110100110111 i
b11101 v
b10101011110011011110000001110100 9
b1111000 :
b1110100 <
b1110100 j
b1110100 l
1#
#310000
0#
b1111 &
b10011000100001001010101 ~
b11010 }
#315000
b1111000 1
b1111000 o
b1111000 -
b1111000 N
b1111000 Y
b1111000 \
b1111000 `
b1111000 s
b0 6
b0 ^
b0 a
b0 q
b0 t
b0 7
b0 r
b1111000 P
b1111000 W
15
b0 Q
b0 T
b0 [
1M
b0 O
b0 X
b1111100 ;
b1111100 k
b10111 f
b0 J
b0 S
b0 ]
b11100 8
b11100 p
b0 3
b0 n
b0 4
b0 m
b10111 =
b10111 Z
b0 F
b0 h
b111000010111 E
b111000010111 g
b111000010111 i
b1111000 9
b1111100 :
b1111000 <
b1111000 j
b1111000 l
b11110 v
1#
#320000
0#
b10000 &
b10011000101010101001001 ~
b10101011110011011110000000000000 |
#325000
b101 1
b101 o
b1111111111111111111111 6
b1111111111111111111111 ^
b1111111111111111111111 a
b1111111111111111111111 q
b1111111111111111111111 t
15
1M
b101 O
b101 X
b10000000 ;
b10000000 k
b10011 f
b11101 8
b11101 p
b101 3
b101 n
b10011 =
b10011 Z
b101 F
b101 h
b101 -
b101 N
b101 Y
b101 \
b101 `
b101 s
b10100000000111010010011 E
b10100000000111010010011 g
b10100000000111010010011 i
b0 P
b0 W
b11111 v
b10000001 9
b10000000 :
b1111100 <
b1111100 j
b1111100 l
1#
#330000
0#
b10001 &
b100000101010101010010010101000001000011 ~
b1111000 |
b11100 }
#335000
b10000100 ;
b10000100 k
b11110 8
b11110 p
b10100000000111100010011 E
b10100000000111100010011 g
b10100000000111100010011 i
b10000101 9
b10000100 :
b10000000 <
b10000000 j
b10000000 l
b100000 v
1#
#340000
0#
b10010 &
b100000101000100010001000100100100100000011100110110010101110100011101010111000000100000011110000011001000111001 ~
b101 |
b11101 }
#345000
0.
bx A
bx @
bx _
b101 1
b101 o
b101 P
b101 W
0L
b110 R
b110 U
b110 V
b101 -
b101 N
b101 Y
b101 \
b101 `
b101 s
b0 6
b0 ^
b0 a
b0 q
b0 t
b101 7
b101 r
b1 Q
b1 T
b1 [
1K
05
0M
b0 O
b0 X
b10001000 ;
b10001000 k
b1100011 f
b1000 8
b1000 p
b1111 3
b1111 n
b11101 4
b11101 m
b1100011 =
b1100011 Z
b1000 F
b1000 h
b111111101000010001100011 E
b111111101000010001100011 g
b111111101000010001100011 i
b100001 v
b10001100 9
b10001000 :
b10000100 <
b10000100 j
b10000100 l
1#
#350000
0#
b10011 &
b100000101000100010001000100100100100000011100110110010101110100011101010111000000100000011110000011001100110000 ~
b11110 }
#355000
b11110 A
b0 1
b0 o
b11110 @
b11110 _
1L
b0 -
b0 N
b0 Y
b0 \
b0 `
b0 s
b0 P
b0 W
b10 R
b10 U
b10 V
b0 7
b0 r
1M
15
0K
b0 Q
b0 T
b0 [
b10001100 ;
b10001100 k
b10011 f
b0 8
b0 p
b0 3
b0 n
b0 4
b0 m
b10011 =
b10011 Z
b0 F
b0 h
b10011 E
b10011 g
b10011 i
b10001000 9
b10001100 :
b10001000 <
b10001000 j
b10001000 l
b100010 v
1#
#360000
0#
#365000
bx A
b11111111111111111111111111111011 1
b11111111111111111111111111111011 o
b101 P
b101 W
bx @
bx _
1.
0L
b11111111111111111111111111111011 -
b11111111111111111111111111111011 N
b11111111111111111111111111111011 Y
b11111111111111111111111111111011 \
b11111111111111111111111111111011 `
b11111111111111111111111111111011 s
b110 R
b110 U
b110 V
b1010 6
b1010 ^
b1010 a
b1010 q
b1010 t
b101 7
b101 r
b1 Q
b1 T
b1 [
1K
05
0M
b1010 O
b1010 X
b10010100 ;
b10010100 k
b1100011 f
b1 J
b1 S
b1 ]
b1000 8
b1000 p
b1 3
b1 n
b11101 4
b11101 m
b1100011 =
b1100011 Z
b1000 F
b1000 h
b111101001010001100011 E
b111101001010001100011 g
b111101001010001100011 i
b100011 v
b10010100 9
b10010000 :
b10001100 <
b10001100 j
b10001100 l
1#
#370000
0#
#375000
1.
b11111111111111111111111111101001 1
b11111111111111111111111111101001 o
b0xxxxxxxx A
b11111111111111111111111111101100 P
b11111111111111111111111111101100 W
0L
b11111111111111111111111111101001 -
b11111111111111111111111111101001 N
b11111111111111111111111111101001 Y
b11111111111111111111111111101001 \
b11111111111111111111111111101001 `
b11111111111111111111111111101001 s
b101 O
b101 X
b1001 R
b1001 U
b1001 V
b0xxxxxxxx @
b0xxxxxxxx _
b101 6
b101 ^
b101 a
b101 q
b101 t
b11111111111111111111111111101100 7
b11111111111111111111111111101100 r
b10011100 ;
b10011100 k
b100 J
b100 S
b100 ]
b11101 3
b11101 n
b10 4
b10 m
b1110100010100010001100011 E
b1110100010100010001100011 g
b1110100010100010001100011 i
b10011100 9
b10011000 :
b10010100 <
b10010100 j
b10010100 l
b100100 v
1#
