tb_rv32i_full.vcd
$date
	Wed Jul 09 16:21:02 2025
$end
$version
	Icarus Verilog
$end
$timescale
	1ps
$end
$scope module tb_rv32i_full $end
$var wire 1 ! timer_interrupt $end
$var wire 8 " gpio_pins_tb [7:0] $end
$var reg 1 # clk $end
$var reg 1 $ rst $end
$var integer 32 % tests_failed [31:0] $end
$var integer 32 & tests_passed [31:0] $end
$scope module uut $end
$var wire 1 # clk $end
$var wire 1 ' data_mem_read_enable $end
$var wire 1 ( data_mem_write_enable $end
$var wire 1 ) gpio_read_enable $end
$var wire 1 * gpio_write_enable $end
$var wire 1 + is_gpio_access $end
$var wire 1 , is_timer_access $end
$var wire 32 - pc_target_jalr [31:0] $end
$var wire 1 $ rst $end
$var wire 1 . take_branch $end
$var wire 1 / timer_read_enable $end
$var wire 1 0 timer_write_enable $end
$var wire 32 1 write_back_data [31:0] $end
$var wire 32 2 timer_read_data [31:0] $end
$var wire 1 ! timer_interrupt $end
$var wire 5 3 rs2 [4:0] $end
$var wire 5 4 rs1 [4:0] $end
$var wire 1 5 reg_write $end
$var wire 32 6 reg_read_data2 [31:0] $end
$var wire 32 7 reg_read_data1 [31:0] $end
$var wire 5 8 rd [4:0] $end
$var wire 32 9 pc_target_imm [31:0] $end
$var wire 32 : pc_plus_4 [31:0] $end
$var wire 32 ; pc_next [31:0] $end
$var wire 32 < pc_current [31:0] $end
$var wire 7 = opcode [6:0] $end
$var wire 1 > mem_write $end
$var wire 1 ? mem_to_reg $end
$var wire 32 @ mem_read_data_from_data_mem [31:0] $end
$var wire 32 A mem_read_data [31:0] $end
$var wire 1 B mem_read $end
$var wire 1 C jump $end
$var wire 1 D is_data_mem_access $end
$var wire 32 E instruction [31:0] $end
$var wire 32 F imm_extended [31:0] $end
$var wire 32 G gpio_read_data [31:0] $end
$var wire 8 H gpio_pins [7:0] $end
$var wire 1 I funct7_bit5 $end
$var wire 3 J funct3 [2:0] $end
$var wire 1 K branch $end
$var wire 1 L alu_zero_flag $end
$var wire 1 M alu_src $end
$var wire 32 N alu_result [31:0] $end
$var wire 32 O alu_operand2 [31:0] $end
$var wire 32 P alu_operand1 [31:0] $end
$var wire 2 Q alu_op [1:0] $end
$var wire 4 R alu_control_signal [3:0] $end
$scope module alu_ctrl $end
$var wire 3 S funct3 [2:0] $end
$var wire 1 I funct7_bit5 $end
$var wire 2 T alu_op [1:0] $end
$var parameter 4 U ALU_ADD $end
$var parameter 4 V ALU_AND $end
$var parameter 4 W ALU_OR $end
$var parameter 4 X ALU_SLL $end
$var parameter 4 Y ALU_SLT $end
$var parameter 4 Z ALU_SLTU $end
$var parameter 4 [ ALU_SRA $end
$var parameter 4 \ ALU_SRL $end
$var parameter 4 ] ALU_SUB $end
$var parameter 4 ^ ALU_XOR $end
$var reg 4 _ alu_control [3:0] $end
$upscope $end
$scope module alu_inst $end
$var wire 4 ` alu_control [3:0] $end
$var wire 32 a operand1 [31:0] $end
$var wire 32 b operand2 [31:0] $end
$var wire 1 L zero $end
$var reg 32 c result [31:0] $end
$upscope $end
$scope module ctrl_unit $end
$var wire 7 d opcode [6:0] $end
$var parameter 7 e OPCODE_AUIPC $end
$var parameter 7 f OPCODE_B_TYPE $end
$var parameter 7 g OPCODE_I_TYPE_ARITH $end
$var parameter 7 h OPCODE_I_TYPE_LOAD $end
$var parameter 7 i OPCODE_JAL $end
$var parameter 7 j OPCODE_JALR $end
$var parameter 7 k OPCODE_LUI $end
$var parameter 7 l OPCODE_R_TYPE $end
$var parameter 7 m OPCODE_S_TYPE $end
$var reg 2 n alu_op [1:0] $end
$var reg 1 M alu_src $end
$var reg 1 K branch $end
$var reg 1 C jump $end
$var reg 1 B mem_read $end
$var reg 1 ? mem_to_reg $end
$var reg 1 > mem_write $end
$var reg 1 5 reg_write $end
$upscope $end
$scope module data_mem $end
$var wire 32 o address [31:0] $end
$var wire 1 # clk $end
$var wire 3 p funct3 [2:0] $end
$var wire 1 ( write_enable $end
$var wire 32 q write_data [31:0] $end
$var reg 32 r read_data [31:0] $end
$upscope $end
$scope module gpio_inst $end
$var wire 32 s address [31:0] $end
$var wire 1 # clk $end
$var wire 1 $ rst $end
$var wire 1 * write_enable $end
$var wire 32 t write_data [31:0] $end
$var wire 32 u read_data [31:0] $end
$var wire 8 v gpio_pins [7:0] $end
$var reg 32 w gpio_data_reg [31:0] $end
$var reg 32 x gpio_dir_reg [31:0] $end
$scope begin gpio_pin_control[0] $end
$var parameter 2 y i $end
$upscope $end
$scope begin gpio_pin_control[1] $end
$var parameter 2 z i $end
$upscope $end
$scope begin gpio_pin_control[2] $end
$var parameter 3 { i $end
$upscope $end
$scope begin gpio_pin_control[3] $end
$var parameter 3 | i $end
$upscope $end
$scope begin gpio_pin_control[4] $end
$var parameter 4 } i $end
$upscope $end
$scope begin gpio_pin_control[5] $end
$var parameter 4 ~ i $end
$upscope $end
$scope begin gpio_pin_control[6] $end
$var parameter 4 !" i $end
$upscope $end
$scope begin gpio_pin_control[7] $end
$var parameter 4 "" i $end
$upscope $end
$upscope $end
$scope module imm_gen $end
$var wire 7 #" opcode [6:0] $end
$var wire 32 $" instruction [31:0] $end
$var parameter 7 %" OPCODE_AUIPC $end
$var parameter 7 &" OPCODE_B_TYPE $end
$var parameter 7 '" OPCODE_I_TYPE_ARITH $end
$var parameter 7 (" OPCODE_I_TYPE_LOAD $end
$var parameter 7 )" OPCODE_JAL $end
$var parameter 7 *" OPCODE_JALR $end
$var parameter 7 +" OPCODE_LUI $end
$var parameter 7 ," OPCODE_S_TYPE $end
$var reg 32 -" imm_extended [31:0] $end
$upscope $end
$scope module instr_mem $end
$var wire 32 ." instruction [31:0] $end
$var wire 32 /" address [31:0] $end
$upscope $end
$scope module pc_reg $end
$var wire 1 # clk $end
$var wire 32 0" pc_in [31:0] $end
$var wire 1 $ rst $end
$var reg 32 1" pc_out [31:0] $end
$upscope $end
$scope module reg_file $end
$var wire 1 # clk $end
$var wire 5 2" read_reg1 [4:0] $end
$var wire 5 3" read_reg2 [4:0] $end
$var wire 32 4" write_data [31:0] $end
$var wire 1 5 write_enable $end
$var wire 5 5" write_reg [4:0] $end
$var wire 32 6" read_data2 [31:0] $end
$var wire 32 7" read_data1 [31:0] $end
$upscope $end
$scope module timer_inst $end
$var wire 32 8" address [31:0] $end
$var wire 1 # clk $end
$var wire 1 $ rst $end
$var wire 32 9" write_data [31:0] $end
$var wire 1 0 write_enable $end
$var wire 32 :" read_data [31:0] $end
$var wire 1 ! interrupt $end
$var reg 64 ;" mtime_reg [63:0] $end
$var reg 64 <" mtimecmp_reg [63:0] $end
$upscope $end
$upscope $end
$scope task check_mem $end
$var reg 32 =" expected [31:0] $end
$var reg 10 >" mem_addr [11:2] $end
$var reg 32 ?" read_value [31:0] $end
$var reg 256 @" test_name [255:0] $end
$upscope $end
$scope task check_reg $end
$var reg 32 A" expected [31:0] $end
$var reg 5 B" reg_addr [4:0] $end
$var reg 256 C" test_name [255:0] $end
$upscope $end
$upscope $end
$enddefinitions $end
$comment Show the parameter values. $end
$dumpall
b100011 ,"
b110111 +"
b1100111 *"
b1101111 )"
b11 ("
b10011 '"
b1100011 &"
b10111 %"
b111 ""
b110 !"
b101 ~
b100 }
b11 |
b10 {
b1 z
b0 y
b100011 m
b110011 l
b110111 k
b1100111 j
b1101111 i
b11 h
b10011 g
b1100011 f
b10111 e
b1001 ^
b110 ]
b100 \
b101 [
b1000 Z
b111 Y
b11 X
b1 W
b0 V
b10 U
$end
#0
$dumpvars
bx C"
bx B"
bx A"
bx @"
bx ?"
bx >"
bx ="
bx <"
b0 ;"
bx :"
bx 9"
b1010 8"
b0 7"
bx 6"
b1 5"
b1010 4"
b1010 3"
b0 2"
b0 1"
b100 0"
b0 /"
b101000000000000010010011 ."
b1010 -"
b101000000000000010010011 $"
b10011 #"
b0 x
b0 w
bz v
bx u
bx t
b1010 s
bx r
bx q
b0 p
b1010 o
b0 n
b10011 d
b1010 c
b1010 b
b0 a
b10 `
b10 _
b0 T
b0 S
b10 R
b0 Q
b0 P
b1010 O
b1010 N
1M
0L
0K
b0 J
0I
bz H
bx G
b1010 F
b101000000000000010010011 E
1D
0C
0B
bx A
bx @
0?
0>
b10011 =
b0 <
b100 ;
b100 :
b1010 9
b1 8
b0 7
bx 6
15
b0 4
b1010 3
bx 2
b1010 1
00
0/
0.
b1010 -
0,
0+
0*
0)
0(
0'
b0 &
b0 %
1$
0#
bz "
x!
$end
#5000
1#
#10000
0#
#15000
1#
#20000
0#
0$
#25000
b11111111111111111111111111101100 1
b11111111111111111111111111101100 4"
b11111111111111111111111111101100 -
b11111111111111111111111111101100 N
b11111111111111111111111111101100 c
b11111111111111111111111111101100 o
b11111111111111111111111111101100 s
b11111111111111111111111111101100 8"
b11111111111111111111111111101100 O
b11111111111111111111111111101100 b
b1000 ;
b1000 0"
1I
b10 8
b10 5"
b1100 3
b1100 3"
b11111111111111111111111111101100 F
b11111111111111111111111111101100 -"
b11111110110000000000000100010011 E
b11111110110000000000000100010011 $"
b11111110110000000000000100010011 ."
b1 ;"
b11111111111111111111111111110000 9
b1000 :
b100 <
b100 /"
b100 1"
1#
#30000
0#
#35000
b1111 1
b1111 4"
b1010 P
b1010 a
b1111 -
b1111 N
b1111 c
b1111 o
b1111 s
b1111 8"
b1010 7
b1010 7"
b101 O
b101 b
b1100 ;
b1100 0"
0I
b11 8
b11 5"
b101 3
b101 3"
b1 4
b1 2"
b101 F
b101 -"
b10100001000000110010011 E
b10100001000000110010011 $"
b10100001000000110010011 ."
b1101 9
b1100 :
b1000 <
b1000 /"
b1000 1"
b10 ;"
1#
#40000
0#
b1 &
b1000001010001000100010001001001001000000111001101100101011101000111010101110000001000000111100000110010 C"
b11111111111111111111111111101100 A"
b10 B"
#45000
b11111111111111111111111111100110 1
b11111111111111111111111111100110 4"
b0xxxxxxxx A
b11111111111111111111111111101100 P
b11111111111111111111111111101100 a
0L
b11111111111111111111111111100110 -
b11111111111111111111111111100110 N
b11111111111111111111111111100110 c
b11111111111111111111111111100110 o
b11111111111111111111111111100110 s
b11111111111111111111111111100110 8"
b1001 R
b1001 _
b1001 `
b0xxxxxxxx @
b0xxxxxxxx r
b11111111111111111111111111101100 7
b11111111111111111111111111101100 7"
b1010 O
b1010 b
b10000 ;
b10000 0"
b100 J
b100 S
b100 p
b100 8
b100 5"
b1010 3
b1010 3"
b10 4
b10 2"
b1010 F
b1010 -"
b101000010100001000010011 E
b101000010100001000010011 $"
b101000010100001000010011 ."
b11 ;"
b10110 9
b10000 :
b1100 <
b1100 /"
b1100 1"
1#
#50000
0#
b10 &
b1000001010001000100010001001001 C"
b1111 A"
b11 B"
#55000
b1111111111111111111111 1
b1111111111111111111111 4"
b0xxxxxxxxxxxxxxxx A
b1111111111111111111111 -
b1111111111111111111111 N
b1111111111111111111111 c
b1111111111111111111111 o
b1111111111111111111111 s
b1111111111111111111111 8"
b100 R
b100 _
b100 `
b0xxxxxxxxxxxxxxxx @
b0xxxxxxxxxxxxxxxx r
b10100 ;
b10100 0"
b101 J
b101 S
b101 p
b101 8
b101 5"
b101000010101001010010011 E
b101000010101001010010011 $"
b101000010101001010010011 ."
b11010 9
b10100 :
b10000 <
b10000 /"
b10000 1"
b100 ;"
1#
#60000
0#
b1 %
b1010011010011000101010001001001 C"
b1 A"
b100 B"
#65000
b11111111111111111111111100000101 1
b11111111111111111111111100000101 4"
b0xxxxxxxx A
b1010 P
b1010 a
b11111111111111111111111100000101 -
b11111111111111111111111100000101 N
b11111111111111111111111100000101 c
b11111111111111111111111100000101 o
b11111111111111111111111100000101 s
b11111111111111111111111100000101 8"
b1001 R
b1001 _
b1001 `
b0xxxxxxxx @
b0xxxxxxxx r
b1010 7
b1010 7"
b11111111111111111111111100001111 O
b11111111111111111111111100001111 b
b11000 ;
b11000 0"
1I
b100 J
b100 S
b100 p
b110 8
b110 5"
b1111 3
b1111 3"
b1 4
b1 2"
b11111111111111111111111100001111 F
b11111111111111111111111100001111 -"
b11110000111100001100001100010011 E
b11110000111100001100001100010011 $"
b11110000111100001100001100010011 ."
b101 ;"
b11111111111111111111111100100011 9
b11000 :
b10100 <
b10100 /"
b10100 1"
1#
#70000
0#
b10 %
b101001101001100010101000100100101010101 C"
b0 A"
b101 B"
#75000
b11111111111111111111111100001111 1
b11111111111111111111111100001111 4"
bx A
b11111111111111111111111100001111 -
b11111111111111111111111100001111 N
b11111111111111111111111100001111 c
b11111111111111111111111100001111 o
b11111111111111111111111100001111 s
b11111111111111111111111100001111 8"
b1 R
b1 _
b1 `
bx @
bx r
b11100 ;
b11100 0"
b110 J
b110 S
b110 p
b111 8
b111 5"
b11110000111100001110001110010011 E
b11110000111100001110001110010011 $"
b11110000111100001110001110010011 ."
b11111111111111111111111100100111 9
b11100 :
b11000 <
b11000 /"
b11000 1"
b110 ;"
1#
#80000
0#
b11 &
b1011000010011110101001001001001 C"
b11111111111111111111111100000101 A"
b110 B"
#85000
b1010 1
b1010 4"
b1010 -
b1010 N
b1010 c
b1010 o
b1010 s
b1010 8"
b0 R
b0 _
b0 `
b100000 ;
b100000 0"
b111 J
b111 S
b111 p
b1000 8
b1000 5"
b11110000111100001111010000010011 E
b11110000111100001111010000010011 $"
b11110000111100001111010000010011 ."
b111 ;"
b11111111111111111111111100101011 9
b100000 :
b11100 <
b11100 /"
b11100 1"
1#
#90000
0#
b100 &
b10011110101001001001001 C"
b11111111111111111111111100001111 A"
b111 B"
#95000
b101000 1
b101000 4"
b101000 -
b101000 N
b101000 c
b101000 o
b101000 s
b101000 8"
b11 R
b11 _
b11 `
b11111111111111111111111111101100 6
b11111111111111111111111111101100 q
b11111111111111111111111111101100 t
b11111111111111111111111111101100 6"
b11111111111111111111111111101100 9"
b10 O
b10 b
b100100 ;
b100100 0"
0I
b1 J
b1 S
b1 p
b1001 8
b1001 5"
b10 3
b10 3"
b10 F
b10 -"
b1000001001010010010011 E
b1000001001010010010011 $"
b1000001001010010010011 ."
b100010 9
b100100 :
b100000 <
b100000 /"
b100000 1"
b1000 ;"
1#
#100000
0#
b101 &
b1000001010011100100010001001001 C"
b1010 A"
b1000 B"
#105000
b10 1
b10 4"
b0xxxxxxxxxxxxxxxx A
b10 -
b10 N
b10 c
b10 o
b10 s
b10 8"
b100 R
b100 _
b100 `
b0xxxxxxxxxxxxxxxx @
b0xxxxxxxxxxxxxxxx r
b101000 ;
b101000 0"
b101 J
b101 S
b101 p
b1010 8
b1010 5"
b1000001101010100010011 E
b1000001101010100010011 $"
b1000001101010100010011 ."
b1001 ;"
b100110 9
b101000 :
b100100 <
b100100 /"
b100100 1"
1#
#110000
0#
b110 &
b1010011010011000100110001001001 C"
b101000 A"
b1001 B"
#115000
b11111111111111111111111111111011 1
b11111111111111111111111111111011 4"
b11111111111111111111111111111011 -
b11111111111111111111111111111011 N
b11111111111111111111111111111011 c
b11111111111111111111111111111011 o
b11111111111111111111111111111011 s
b11111111111111111111111111111011 8"
b11111111111111111111111111101100 P
b11111111111111111111111111101100 a
b101 R
b101 _
b101 `
b11111111111111111111111111101100 7
b11111111111111111111111111101100 7"
b10000000010 O
b10000000010 b
b101100 ;
b101100 0"
1I
b1011 8
b1011 5"
b10 4
b10 2"
b10000000010 F
b10000000010 -"
b1000000001000010101010110010011 E
b1000000001000010101010110010011 $"
b1000000001000010101010110010011 ."
b10000101010 9
b101100 :
b101000 <
b101000 /"
b101000 1"
b1010 ;"
1#
#120000
0#
b111 &
b1010011010100100100110001001001 C"
b10 A"
b1010 B"
#125000
b11111111111111111111111111110110 1
b11111111111111111111111111110110 4"
bx A
b1010 P
b1010 a
b11111111111111111111111111110110 -
b11111111111111111111111111110110 N
b11111111111111111111111111110110 c
b11111111111111111111111111110110 o
b11111111111111111111111111110110 s
b11111111111111111111111111110110 8"
b10 R
b10 _
b10 `
bx @
bx r
b1010 7
b1010 7"
b10 Q
b10 T
b10 n
15
0M
b11111111111111111111111111101100 O
b11111111111111111111111111101100 b
b110000 ;
b110000 0"
b110011 #"
0I
b0 J
b0 S
b0 p
b1100 8
b1100 5"
b1 4
b1 2"
b110011 =
b110011 d
bx F
bx -"
b1000001000011000110011 E
b1000001000011000110011 $"
b1000001000011000110011 ."
b1011 ;"
bx 9
b110000 :
b101100 <
b101100 /"
b101100 1"
1#
#130000
0#
b1000 &
b1010011010100100100000101001001 C"
b11111111111111111111111111111011 A"
b1011 B"
#135000
b11110 1
b11110 4"
b11110 -
b11110 N
b11110 c
b11110 o
b11110 s
b11110 8"
b110 R
b110 _
b110 `
b110100 ;
b110100 0"
1I
b1101 8
b1101 5"
b1000000001000001000011010110011 E
b1000000001000001000011010110011 $"
b1000000001000001000011010110011 ."
b110100 :
b110000 <
b110000 /"
b110000 1"
b1100 ;"
1#
#140000
0#
b1001 &
b10000010100010001000100 C"
b11111111111111111111111111110110 A"
b1100 B"
#145000
b1 1
b1 4"
b11111111111111111111111111101100 P
b11111111111111111111111111101100 a
0L
b1 -
b1 N
b1 c
b1 o
b1 s
b1 8"
b1010 O
b1010 b
b111 R
b111 _
b111 `
b1010 6
b1010 q
b1010 t
b1010 6"
b1010 9"
b11111111111111111111111111101100 7
b11111111111111111111111111101100 7"
b111000 ;
b111000 0"
0I
b10 J
b10 S
b10 p
b1110 8
b1110 5"
b1 3
b1 3"
b10 4
b10 2"
b100010010011100110011 E
b100010010011100110011 $"
b100010010011100110011 ."
b1101 ;"
b111000 :
b110100 <
b110100 /"
b110100 1"
1#
#150000
0#
b1010 &
b10100110101010101000010 C"
b11110 A"
b1101 B"
#155000
b0 1
b0 4"
1L
b0 -
b0 N
b0 c
b0 o
b0 s
b0 8"
b1000 R
b1000 _
b1000 `
b111100 ;
b111100 0"
b11 J
b11 S
b11 p
b1111 8
b1111 5"
b100010011011110110011 E
b100010011011110110011 $"
b100010011011110110011 ."
b111100 :
b111000 <
b111000 /"
b111000 1"
b1110 ;"
1#
#160000
0#
b1011 &
b10100110100110001010100 C"
b1 A"
b1110 B"
#165000
b11111111111111111111111111100110 1
b11111111111111111111111111100110 4"
0L
b11111111111111111111111111100110 -
b11111111111111111111111111100110 N
b11111111111111111111111111100110 c
b11111111111111111111111111100110 o
b11111111111111111111111111100110 s
b11111111111111111111111111100110 8"
b0xxxxxxxx A
b1010 P
b1010 a
b11111111111111111111111111101100 O
b11111111111111111111111111101100 b
b1001 R
b1001 _
b1001 `
b0xxxxxxxx @
b0xxxxxxxx r
b11111111111111111111111111101100 6
b11111111111111111111111111101100 q
b11111111111111111111111111101100 t
b11111111111111111111111111101100 6"
b11111111111111111111111111101100 9"
b1010 7
b1010 7"
b1000000 ;
b1000000 0"
b100 J
b100 S
b100 p
b10000 8
b10000 5"
b10 3
b10 3"
b1 4
b1 2"
b1000001100100000110011 E
b1000001100100000110011 $"
b1000001100100000110011 ."
b1111 ;"
b1000000 :
b111100 <
b111100 /"
b111100 1"
1#
#170000
0#
b1100 &
b1010011010011000101010001010101 C"
b0 A"
b1111 B"
#175000
b11111111111111111111111111101110 1
b11111111111111111111111111101110 4"
bx A
b11111111111111111111111111101110 -
b11111111111111111111111111101110 N
b11111111111111111111111111101110 c
b11111111111111111111111111101110 o
b11111111111111111111111111101110 s
b11111111111111111111111111101110 8"
b1 R
b1 _
b1 `
bx @
bx r
b1000100 ;
b1000100 0"
b110 J
b110 S
b110 p
b10001 8
b10001 5"
b1000001110100010110011 E
b1000001110100010110011 $"
b1000001110100010110011 ."
b1000100 :
b1000000 <
b1000000 /"
b1000000 1"
b10000 ;"
1#
#180000
0#
b1101 &
b10110000100111101010010 C"
b11111111111111111111111111100110 A"
b10000 B"
#185000
b1000 1
b1000 4"
b1000 -
b1000 N
b1000 c
b1000 o
b1000 s
b1000 8"
b0 R
b0 _
b0 `
b1001000 ;
b1001000 0"
b111 J
b111 S
b111 p
b10010 8
b10010 5"
b1000001111100100110011 E
b1000001111100100110011 $"
b1000001111100100110011 ."
b10001 ;"
b1001000 :
b1000100 <
b1000100 /"
b1000100 1"
1#
#190000
0#
b1110 &
b100111101010010 C"
b11111111111111111111111111101110 A"
b10001 B"
#195000
b101000 1
b101000 4"
b101000 -
b101000 N
b101000 c
b101000 o
b101000 s
b101000 8"
b10 O
b10 b
b11 R
b11 _
b11 `
b10 6
b10 q
b10 t
b10 6"
b10 9"
b1001100 ;
b1001100 0"
b1 J
b1 S
b1 p
b10011 8
b10011 5"
b1010 3
b1010 3"
b101000001001100110110011 E
b101000001001100110110011 $"
b101000001001100110110011 ."
b1001100 :
b1001000 <
b1001000 /"
b1001000 1"
b10010 ;"
1#
#200000
0#
b1111 &
b10000010100111001000100 C"
b1000 A"
b10010 B"
#205000
xD
x+
x,
bx 1
bx 4"
xL
bx A
bx P
bx a
bx -
bx N
bx c
bx o
bx s
bx 8"
b0 O
b0 b
b100 R
b100 _
b100 `
b0xxxxxxxxxxxxxxxx @
b0xxxxxxxxxxxxxxxx r
b0 6
b0 q
b0 t
b0 6"
b0 9"
bx 7
bx 7"
b1010000 ;
b1010000 0"
b101 J
b101 S
b101 p
b10100 8
b10100 5"
b0 3
b0 3"
b10101 4
b10101 2"
b10101101101000110011 E
b10101101101000110011 $"
b10101101101000110011 ."
b10011 ;"
b1010000 :
b1001100 <
b1001100 /"
b1001100 1"
1#
#210000
0#
b11 %
b10100110100110001001100 C"
b10100000000000 A"
b10011 B"
#215000
b0xxxxxxxxxxxxxxxx A
b11111111111111111111111111111011 1
b11111111111111111111111111111011 4"
1D
0+
0,
0L
b11111111111111111111111111111011 -
b11111111111111111111111111111011 N
b11111111111111111111111111111011 c
b11111111111111111111111111111011 o
b11111111111111111111111111111011 s
b11111111111111111111111111111011 8"
b11111111111111111111111111101100 P
b11111111111111111111111111101100 a
b10 O
b10 b
b101 R
b101 _
b101 `
b10 6
b10 q
b10 t
b10 6"
b10 9"
b11111111111111111111111111101100 7
b11111111111111111111111111101100 7"
b1010100 ;
b1010100 0"
1I
b10101 8
b10101 5"
b1010 3
b1010 3"
b10 4
b10 2"
b1000000101000010101101010110011 E
b1000000101000010101101010110011 $"
b1000000101000010101101010110011 ."
b1010100 :
b1010000 <
b1010000 /"
b1010000 1"
b10100 ;"
1#
#220000
0#
b100 %
b10100110101001001001100 C"
b0 A"
b10100 B"
#225000
b0 1
b0 4"
bx A
b0 P
b0 a
1L
b0 -
b0 N
b0 c
b0 o
b0 s
b0 8"
1(
b11111111111111111111111111100000 O
b11111111111111111111111111100000 b
b110100 9
b11111111111111111111111111100000 F
b11111111111111111111111111100000 -"
b111 R
b111 _
b111 `
bx @
bx r
b11111111111111111111111111110110 6
b11111111111111111111111111110110 q
b11111111111111111111111111110110 t
b11111111111111111111111111110110 6"
b11111111111111111111111111110110 9"
b0 7
b0 7"
1>
1M
05
b0 Q
b0 T
b0 n
b1011000 ;
b1011000 0"
b100011 #"
b10 J
b10 S
b10 p
b0 8
b0 5"
b1100 3
b1100 3"
b0 4
b0 2"
b100011 =
b100011 d
b11111110110000000010000000100011 E
b11111110110000000010000000100011 $"
b11111110110000000010000000100011 ."
b10101 ;"
b1011000 :
b1010100 <
b1010100 /"
b1010100 1"
1#
#230000
0#
b101 %
b10100110101001001000001 C"
b11111111111111111111111111111111 A"
b10101 B"
#235000
b11111111111111111111111111110110 A
b11 R
b11 _
b11 `
b11110 6
b11110 q
b11110 t
b11110 6"
b11110 9"
b100 O
b100 b
b1011100 ;
b1011100 0"
0I
b1 J
b1 S
b1 p
b100 8
b100 5"
b1101 3
b1101 3"
b100 F
b100 -"
b11111111111111111111111111110110 @
b11111111111111111111111111110110 r
b110100000001001000100011 E
b110100000001001000100011 $"
b110100000001001000100011 ."
b1011100 9
b1011100 :
b1011000 <
b1011000 /"
b1011000 1"
b10110 ;"
1#
#240000
0#
b10000 &
b11111111111111111111111111110110 ?"
b101001101010111 @"
b11111111111111111111111111110110 ="
b0 >"
#245000
b110 1
b110 4"
0L
b110 -
b110 N
b110 c
b110 o
b110 s
b110 8"
bx A
b10 R
b10 _
b10 `
b1010 6
b1010 q
b1010 t
b1010 6"
b1010 9"
b110 O
b110 b
b1100000 ;
b1100000 0"
b0 J
b0 S
b0 p
b110 8
b110 5"
b1 3
b1 3"
b110 F
b110 -"
bx @
bx r
b100000000001100100011 E
b100000000001100100011 $"
b100000000001100100011 ."
b10111 ;"
b1100010 9
b1100000 :
b1011100 <
b1011100 /"
b1011100 1"
1#
#250000
0#
#255000
b11111111111111110000000000011110 1
b11111111111111110000000000011110 4"
1L
1'
0(
b0 -
b0 N
b0 c
b0 o
b0 s
b0 8"
b11111111111111110000000000011110 A
b0 6
b0 q
b0 t
b0 6"
b0 9"
b11 Q
b11 T
b11 n
1?
1B
15
0>
1M
b0 O
b0 b
b1100100 ;
b1100100 0"
b11 #"
b10 J
b10 S
b10 p
b10110 8
b10110 5"
b0 3
b0 3"
b11 =
b11 d
b0 F
b0 -"
b11111111111111110000000000011110 @
b11111111111111110000000000011110 r
b10101100000011 E
b10101100000011 $"
b10101100000011 ."
b1100000 9
b1100100 :
b1100000 <
b1100000 /"
b1100000 1"
b11000 ;"
1#
#260000
0#
#265000
bx 1
bx 4"
bx A
0L
b100 -
b100 N
b100 c
b100 o
b100 s
b100 8"
bx @
bx r
b11111111111111111111111111100110 6
b11111111111111111111111111100110 q
b11111111111111111111111111100110 t
b11111111111111111111111111100110 6"
b11111111111111111111111111100110 9"
b100 O
b100 b
b1101000 ;
b1101000 0"
b1 J
b1 S
b1 p
b10111 8
b10111 5"
b100 3
b100 3"
b100 F
b100 -"
b10000000001101110000011 E
b10000000001101110000011 $"
b10000000001101110000011 ."
b11001 ;"
b1101000 9
b1101000 :
b1100100 <
b1100100 /"
b1100100 1"
1#
#270000
0#
b110 %
b100110001010111 C"
b11111111111111111111111111110110 A"
b10110 B"
#275000
b0xxxxxxxxxxxxxxxx 1
b0xxxxxxxxxxxxxxxx 4"
b0xxxxxxxxxxxxxxxx A
b0xxxxxxxxxxxxxxxx @
b0xxxxxxxxxxxxxxxx r
b1101100 ;
b1101100 0"
b101 J
b101 S
b101 p
b11000 8
b11000 5"
b10000000101110000000011 E
b10000000101110000000011 $"
b10000000101110000000011 ."
b1101100 9
b1101100 :
b1101000 <
b1101000 /"
b1101000 1"
b11010 ;"
1#
#280000
0#
b111 %
b100110001001000 C"
b11110 A"
b10111 B"
#285000
b1010 1
b1010 4"
b1010 A
b110 -
b110 N
b110 c
b110 o
b110 s
b110 8"
b1010 @
b1010 r
b11111111111111111111111100000101 6
b11111111111111111111111100000101 q
b11111111111111111111111100000101 t
b11111111111111111111111100000101 6"
b11111111111111111111111100000101 9"
b110 O
b110 b
b1110000 ;
b1110000 0"
b0 J
b0 S
b0 p
b11001 8
b11001 5"
b110 3
b110 3"
b110 F
b110 -"
b11000000000110010000011 E
b11000000000110010000011 $"
b11000000000110010000011 ."
b11011 ;"
b1110010 9
b1110000 :
b1101100 <
b1101100 /"
b1101100 1"
1#
#290000
0#
b1000 %
b10011000100100001010101 C"
b11000 B"
#295000
b1110100 ;
b1110100 0"
b100 J
b100 S
b100 p
b11010 8
b11010 5"
b11000000100110100000011 E
b11000000100110100000011 $"
b11000000100110100000011 ."
b1110110 9
b1110100 :
b1110000 <
b1110000 /"
b1110000 1"
b11100 ;"
1#
#300000
0#
b10001 &
b100110001000010 C"
b1010 A"
b11001 B"
#305000
bx A
b10101011110011011110000000000000 1
b10101011110011011110000000000000 4"
0'
b10101011110011011110000000000000 -
b10101011110011011110000000000000 N
b10101011110011011110000000000000 c
b10101011110011011110000000000000 o
b10101011110011011110000000000000 s
b10101011110011011110000000000000 8"
bx @
bx r
bx 6
bx q
bx t
bx 6"
bx 9"
bx 7
bx 7"
0B
15
0?
b11 Q
b11 T
b11 n
1M
b10101011110011011110000000000000 O
b10101011110011011110000000000000 b
b1111000 ;
b1111000 0"
b110111 #"
b110 J
b110 S
b110 p
b11100 3
b11100 3"
b11011 4
b11011 2"
b110111 =
b110111 d
b10101011110011011110000000000000 F
b10101011110011011110000000000000 -"
b10101011110011011110110100110111 E
b10101011110011011110110100110111 $"
b10101011110011011110110100110111 ."
b11101 ;"
b10101011110011011110000001110100 9
b1111000 :
b1110100 <
b1110100 /"
b1110100 1"
1#
#310000
0#
b10010 &
b10011000100001001010101 C"
b11010 B"
#315000
b1111000 1
b1111000 4"
b1111000 -
b1111000 N
b1111000 c
b1111000 o
b1111000 s
b1111000 8"
b0 6
b0 q
b0 t
b0 6"
b0 9"
b0 7
b0 7"
b1111000 P
b1111000 a
15
b0 Q
b0 T
b0 n
1M
b0 O
b0 b
b1111100 ;
b1111100 0"
b10111 #"
b0 J
b0 S
b0 p
b11100 8
b11100 5"
b0 3
b0 3"
b0 4
b0 2"
b10111 =
b10111 d
b0 F
b0 -"
b111000010111 E
b111000010111 $"
b111000010111 ."
b1111000 9
b1111100 :
b1111000 <
b1111000 /"
b1111000 1"
b11110 ;"
1#
#320000
0#
b10011 &
b10011000101010101001001 C"
b10101011110011011110000000000000 A"
#325000
b101 1
b101 4"
b1111111111111111111111 6
b1111111111111111111111 q
b1111111111111111111111 t
b1111111111111111111111 6"
b1111111111111111111111 9"
15
1M
b101 O
b101 b
b10000000 ;
b10000000 0"
b10011 #"
b11101 8
b11101 5"
b101 3
b101 3"
b10011 =
b10011 d
b101 F
b101 -"
b101 -
b101 N
b101 c
b101 o
b101 s
b101 8"
b10100000000111010010011 E
b10100000000111010010011 $"
b10100000000111010010011 ."
b0 P
b0 a
b11111 ;"
b10000001 9
b10000000 :
b1111100 <
b1111100 /"
b1111100 1"
1#
#330000
0#
b10100 &
b100000101010101010010010101000001000011 C"
b1111000 A"
b11100 B"
