sim/waves/tb_riscv_core_new.vcd
$date
	Wed Oct  1 16:36:03 2025
$end
$version
	Icarus Verilog
$end
$timescale
	1ps
$end
$scope module tb_riscv_core_new $end
$var wire 1 ! timer_interrupt $end
$var wire 1 " host_write_enable $end
$var wire 32 # host_data_out [31:0] $end
$var wire 8 $ gpio_pins [7:0] $end
$var reg 1 % clk $end
$var reg 1 & rst $end
$scope module uut $end
$var wire 1 % clk $end
$var wire 1 ' data_mem_read_enable $end
$var wire 1 ( data_mem_write_enable $end
$var wire 1 ) gpio_read_enable $end
$var wire 1 * gpio_write_enable $end
$var wire 32 + host_data_out [31:0] $end
$var wire 1 " host_write_enable $end
$var wire 1 , is_gpio_access $end
$var wire 1 - is_timer_access $end
$var wire 1 & rst $end
$var wire 1 . take_branch $end
$var wire 1 / timer_read_enable $end
$var wire 1 0 timer_write_enable $end
$var wire 32 1 write_back_data [31:0] $end
$var wire 32 2 timer_read_data [31:0] $end
$var wire 1 ! timer_interrupt $end
$var wire 5 3 rs2 [4:0] $end
$var wire 5 4 rs1 [4:0] $end
$var wire 1 5 reg_write $end
$var wire 32 6 reg_read_data2 [31:0] $end
$var wire 32 7 reg_read_data1 [31:0] $end
$var wire 5 8 rd [4:0] $end
$var wire 32 9 pc_target_jalr [31:0] $end
$var wire 32 : pc_target_imm [31:0] $end
$var wire 32 ; pc_plus_4 [31:0] $end
$var wire 32 < pc_next [31:0] $end
$var wire 32 = pc_current [31:0] $end
$var wire 7 > opcode [6:0] $end
$var wire 1 ? mem_write $end
$var wire 1 @ mem_to_reg $end
$var wire 32 A mem_read_data_from_data_mem [31:0] $end
$var wire 32 B mem_read_data [31:0] $end
$var wire 1 C mem_read $end
$var wire 1 D jump $end
$var wire 1 E is_tohost_access $end
$var wire 1 F is_data_mem_access $end
$var wire 32 G instruction [31:0] $end
$var wire 32 H imm_extended [31:0] $end
$var wire 32 I gpio_read_data [31:0] $end
$var wire 8 J gpio_pins [7:0] $end
$var wire 1 K funct7_bit5 $end
$var wire 3 L funct3 [2:0] $end
$var wire 1 M branch $end
$var wire 1 N alu_zero_flag $end
$var wire 1 O alu_src $end
$var wire 32 P alu_result [31:0] $end
$var wire 32 Q alu_operand2 [31:0] $end
$var wire 32 R alu_operand1 [31:0] $end
$var wire 2 S alu_op [1:0] $end
$var wire 4 T alu_control_signal [3:0] $end
$scope module alu_ctrl $end
$var wire 3 U funct3 [2:0] $end
$var wire 1 K funct7_bit5 $end
$var wire 2 V alu_op [1:0] $end
$var reg 4 W alu_control [3:0] $end
$upscope $end
$scope module alu_inst $end
$var wire 4 X alu_control [3:0] $end
$var wire 32 Y operand1 [31:0] $end
$var wire 32 Z operand2 [31:0] $end
$var wire 1 N zero $end
$var wire 5 [ shift_amount [4:0] $end
$var reg 32 \ result [31:0] $end
$upscope $end
$scope module ctrl_unit $end
$var wire 7 ] opcode [6:0] $end
$var reg 2 ^ alu_op [1:0] $end
$var reg 1 O alu_src $end
$var reg 1 M branch $end
$var reg 1 D jump $end
$var reg 1 C mem_read $end
$var reg 1 @ mem_to_reg $end
$var reg 1 ? mem_write $end
$var reg 1 5 reg_write $end
$upscope $end
$scope module data_mem $end
$var wire 32 _ address [31:0] $end
$var wire 1 % clk $end
$var wire 3 ` funct3 [2:0] $end
$var wire 1 ( write_enable $end
$var wire 32 a write_data [31:0] $end
$var reg 32 b read_data [31:0] $end
$upscope $end
$scope module gpio_inst $end
$var wire 32 c address [31:0] $end
$var wire 1 % clk $end
$var wire 1 & rst $end
$var wire 1 * write_enable $end
$var wire 32 d write_data [31:0] $end
$var wire 32 e read_data [31:0] $end
$var wire 8 f gpio_pins [7:0] $end
$var reg 32 g gpio_data_reg [31:0] $end
$var reg 32 h gpio_dir_reg [31:0] $end
$scope begin gpio_pin_control[0] $end
$upscope $end
$scope begin gpio_pin_control[1] $end
$upscope $end
$scope begin gpio_pin_control[2] $end
$upscope $end
$scope begin gpio_pin_control[3] $end
$upscope $end
$scope begin gpio_pin_control[4] $end
$upscope $end
$scope begin gpio_pin_control[5] $end
$upscope $end
$scope begin gpio_pin_control[6] $end
$upscope $end
$scope begin gpio_pin_control[7] $end
$upscope $end
$upscope $end
$scope module imm_gen $end
$var wire 7 i opcode [6:0] $end
$var wire 32 j instruction [31:0] $end
$var reg 32 k imm_extended [31:0] $end
$upscope $end
$scope module instr_mem $end
$var wire 32 l instruction [31:0] $end
$var wire 32 m address [31:0] $end
$upscope $end
$scope module pc_reg $end
$var wire 1 % clk $end
$var wire 32 n pc_in [31:0] $end
$var wire 1 & rst $end
$var reg 32 o pc_out [31:0] $end
$upscope $end
$scope module reg_file $end
$var wire 1 % clk $end
$var wire 5 p read_reg1 [4:0] $end
$var wire 5 q read_reg2 [4:0] $end
$var wire 1 & rst $end
$var wire 32 r write_data [31:0] $end
$var wire 1 5 write_enable $end
$var wire 5 s write_reg [4:0] $end
$var wire 32 t read_data2 [31:0] $end
$var wire 32 u read_data1 [31:0] $end
$var integer 32 v i [31:0] $end
$upscope $end
$scope module timer_inst $end
$var wire 32 w address [31:0] $end
$var wire 1 % clk $end
$var wire 1 & rst $end
$var wire 32 x write_data [31:0] $end
$var wire 1 0 write_enable $end
$var wire 32 y read_data [31:0] $end
$var wire 1 ! interrupt $end
$var reg 64 z mtime_reg [63:0] $end
$var reg 64 { mtimecmp_reg [63:0] $end
$upscope $end
$upscope $end
$scope begin $unm_blk_2 $end
$var integer 32 | i [31:0] $end
$upscope $end
$scope begin $unm_blk_4 $end
$var integer 32 } file [31:0] $end
$var integer 32 ~ i [31:0] $end
$upscope $end
$upscope $end
$enddefinitions $end
#0
$dumpvars
bx ~
bx }
b10000000000000 |
b0 {
b0 z
bx y
b0 x
b0 w
b100000 v
b0 u
b0 t
b11010 s
b0 r
b0 q
b0 p
b10000000000000000000000000000000 o
b10000000000000000000000000000100 n
b10000000000000000000000000000000 m
b110100010011 l
b0 k
b110100010011 j
b10011 i
b0 h
b0 g
bz f
bx e
b0 d
b0 c
bx b
b0 a
b0 `
b0 _
b0 ^
b10011 ]
b0 \
b0 [
b0 Z
b0 Y
b10 X
b10 W
b0 V
b0 U
b10 T
b0 S
b0 R
b0 Q
b0 P
1O
1N
0M
b0 L
0K
bz J
bx I
b0 H
b110100010011 G
1F
0E
0D
0C
bx B
bx A
0@
0?
b10011 >
b10000000000000000000000000000000 =
b10000000000000000000000000000100 <
b10000000000000000000000000000100 ;
b10000000000000000000000000000000 :
b0 9
b11010 8
b0 7
b0 6
15
b0 4
b0 3
bx 2
b0 1
00
0/
0.
0-
0,
b0 +
0*
0)
0(
0'
1&
0%
bz $
b0 #
0"
1!
$end
#5000
b100000 v
1%
#10000
0%
#15000
b100000 v
1%
#20000
0%
0&
#25000
b10000000000000000000000000001000 <
b10000000000000000000000000001000 n
b11011 8
b11011 s
b110110010011 G
b110110010011 j
b110110010011 l
b1 z
b10000000000000000000000000000100 :
b10000000000000000000000000001000 ;
b10000000000000000000000000000100 =
b10000000000000000000000000000100 m
b10000000000000000000000000000100 o
1%
#30000
0%
#35000
b10000000000000000000000000001100 <
b10000000000000000000000000001100 n
b1 8
b1 s
b10010011 G
b10010011 j
b10010011 l
b10000000000000000000000000001000 :
b10000000000000000000000000001100 ;
b10000000000000000000000000001000 =
b10000000000000000000000000001000 m
b10000000000000000000000000001000 o
b10 z
1%
#40000
0%
#45000
b10000000000000000000000000010000 <
b10000000000000000000000000010000 n
b10 8
b10 s
b100010011 G
b100010011 j
b100010011 l
b11 z
b10000000000000000000000000001100 :
b10000000000000000000000000010000 ;
b10000000000000000000000000001100 =
b10000000000000000000000000001100 m
b10000000000000000000000000001100 o
1%
#50000
0%
#55000
b0 1
b0 r
b0 9
1N
b0 P
b0 \
b0 _
b0 c
b0 w
b0 [
b10 S
b10 V
b10 ^
15
0O
b0 Q
b0 Z
b10000000000000000000000000010100 <
b10000000000000000000000000010100 n
b110011 i
b11110 8
b11110 s
b10 3
b10 q
b1 4
b1 p
b110011 >
b110011 ]
bx H
bx k
b1000001000111100110011 G
b1000001000111100110011 j
b1000001000111100110011 l
bx :
b10000000000000000000000000010100 ;
b10000000000000000000000000010000 =
b10000000000000000000000000010000 m
b10000000000000000000000000010000 o
b100 z
1%
#60000
0%
#65000
b10000000000000000000000000010100 :
b0 H
b0 k
1O
15
b0 S
b0 V
b0 ^
b10000000000000000000000000011000 <
b10000000000000000000000000011000 n
b10011 i
b11101 8
b11101 s
b0 3
b0 q
b0 4
b0 p
b10011 >
b10011 ]
b111010010011 G
b111010010011 j
b111010010011 l
b101 z
b10000000000000000000000000011000 ;
b10000000000000000000000000010100 =
b10000000000000000000000000010100 m
b10000000000000000000000000010100 o
1%
#70000
0%
#75000
b10 1
b10 r
b10 9
0N
b10 P
b10 \
b10 _
b10 c
b10 w
b10 [
b10 Q
b10 Z
b10000000000000000000000000011100 <
b10000000000000000000000000011100 n
b11 8
b11 s
b10 3
b10 q
b10 H
b10 k
b1000000000000110010011 G
b1000000000000110010011 j
b1000000000000110010011 l
b10000000000000000000000000011010 :
b10000000000000000000000000011100 ;
b10000000000000000000000000011000 =
b10000000000000000000000000011000 m
b10000000000000000000000000011000 o
b110 z
1%
#80000
0%
#85000
0.
b0 1
b0 r
1N
b0 9
b0 P
b0 \
b0 _
b0 c
b0 w
b0 [
b110 T
b110 W
b110 X
b1 S
b1 V
b1 ^
1M
05
0O
b0 Q
b0 Z
b10000000000000000000000000100000 <
b10000000000000000000000000100000 n
b1100011 i
1K
b1 L
b1 U
b1 `
b1100 8
b1100 s
b11101 3
b11101 q
b11110 4
b11110 p
b1100011 >
b1100011 ]
b10011001100 H
b10011001100 k
b1001101110111110001011001100011 G
b1001101110111110001011001100011 j
b1001101110111110001011001100011 l
b111 z
b10000000000000000000010011101000 :
b10000000000000000000000000100000 ;
b10000000000000000000000000011100 =
b10000000000000000000000000011100 m
b10000000000000000000000000011100 o
1%
#90000
0%
#95000
b1 1
b1 r
b1 [
0N
b1 P
b1 \
b1 _
b1 c
b1 w
b1 Q
b1 Z
b10 T
b10 W
b10 X
1O
15
0M
b0 S
b0 V
b0 ^
b10000000000000000000000000100100 <
b10000000000000000000000000100100 n
b10011 i
0K
b0 L
b0 U
b0 `
b1 8
b1 s
b1 3
b1 q
b0 4
b0 p
b10011 >
b10011 ]
b1 H
b1 k
b100000000000010010011 G
b100000000000010010011 j
b100000000000010010011 l
b10000000000000000000000000100001 :
b10000000000000000000000000100100 ;
b10000000000000000000000000100000 =
b10000000000000000000000000100000 m
b10000000000000000000000000100000 o
b1000 z
1%
#100000
0%
#105000
b10000000000000000000000000101000 <
b10000000000000000000000000101000 n
b10 8
b10 s
b1 #
b1 +
b1 6
b1 a
b1 d
b1 t
b1 x
b100000000000100010011 G
b100000000000100010011 j
b100000000000100010011 l
b1001 z
b10000000000000000000000000100101 :
b10000000000000000000000000101000 ;
b10000000000000000000000000100100 =
b10000000000000000000000000100100 m
b10000000000000000000000000100100 o
1%
#110000
0%
#115000
b10 1
b10 r
b1 R
b1 Y
b10 9
b10 P
b10 \
b10 _
b10 c
b10 w
b1 [
b1 7
b1 u
b10 S
b10 V
b10 ^
15
0O
b1 Q
b1 Z
b10000000000000000000000000101100 <
b10000000000000000000000000101100 n
b110011 i
b11110 8
b11110 s
b10 3
b10 q
b1 4
b1 p
b110011 >
b110011 ]
bx H
bx k
b1000001000111100110011 G
b1000001000111100110011 j
b1000001000111100110011 l
bx :
b10000000000000000000000000101100 ;
b10000000000000000000000000101000 =
b10000000000000000000000000101000 m
b10000000000000000000000000101000 o
b1010 z
1%
#120000
0%
#125000
b10 1
b10 r
b0 R
b0 Y
b10 P
b10 \
b10 _
b10 c
b10 w
b10 [
b10 Q
b10 Z
b10000000000000000000000000101110 :
b10 H
b10 k
b0 7
b0 u
1O
15
b0 S
b0 V
b0 ^
b10000000000000000000000000110000 <
b10000000000000000000000000110000 n
b10011 i
b11101 8
b11101 s
b0 4
b0 p
b10011 >
b10011 ]
b1000000000111010010011 G
b1000000000111010010011 j
b1000000000111010010011 l
b1011 z
b10000000000000000000000000110000 ;
b10000000000000000000000000101100 =
b10000000000000000000000000101100 m
b10000000000000000000000000101100 o
1%
#130000
0%
#135000
b11 1
b11 r
b11 P
b11 \
b11 _
b11 c
b11 w
b11 [
b10 #
b10 +
b10 6
b10 a
b10 d
b10 t
b10 x
b11 Q
b11 Z
b10000000000000000000000000110100 <
b10000000000000000000000000110100 n
b11 8
b11 s
b11 3
b11 q
b11 H
b11 k
b1100000000000110010011 G
b1100000000000110010011 j
b1100000000000110010011 l
b10000000000000000000000000110011 :
b10000000000000000000000000110100 ;
b10000000000000000000000000110000 =
b10000000000000000000000000110000 m
b10000000000000000000000000110000 o
b1100 z
1%
#140000
0%
#145000
0.
1N
b0 1
b0 r
b10 R
b10 Y
b0 9
b0 P
b0 \
b0 _
b0 c
b0 w
b10 [
b110 T
b110 W
b110 X
b10 7
b10 u
b1 S
b1 V
b1 ^
1M
05
0O
b10 Q
b10 Z
b10000000000000000000000000111000 <
b10000000000000000000000000111000 n
b1100011 i
1K
b1 L
b1 U
b1 `
b10100 8
b10100 s
b11101 3
b11101 q
b11110 4
b11110 p
b1100011 >
b1100011 ]
b10010110100 H
b10010110100 k
b10 #
b10 +
b10 6
b10 a
b10 d
b10 t
b10 x
b1001011110111110001101001100011 G
b1001011110111110001101001100011 j
b1001011110111110001101001100011 l
b1101 z
b10000000000000000000010011101000 :
b10000000000000000000000000111000 ;
b10000000000000000000000000110100 =
b10000000000000000000000000110100 m
b10000000000000000000000000110100 o
1%
#150000
0%
#155000
b11 1
b11 r
b10 9
b0 R
b0 Y
b11 [
0N
b11 P
b11 \
b11 _
b11 c
b11 w
b11 Q
b11 Z
b10 T
b10 W
b10 X
b11 #
b11 +
b11 6
b11 a
b11 d
b11 t
b11 x
b0 7
b0 u
1O
15
0M
b0 S
b0 V
b0 ^
b10000000000000000000000000111100 <
b10000000000000000000000000111100 n
b10011 i
0K
b0 L
b0 U
b0 `
b1 8
b1 s
b11 3
b11 q
b0 4
b0 p
b10011 >
b10011 ]
b11 H
b11 k
b1100000000000010010011 G
b1100000000000010010011 j
b1100000000000010010011 l
b10000000000000000000000000111011 :
b10000000000000000000000000111100 ;
b10000000000000000000000000111000 =
b10000000000000000000000000111000 m
b10000000000000000000000000111000 o
b1110 z
1%
#160000
0%
#165000
b111 1
b111 r
b110 9
b111 P
b111 \
b111 _
b111 c
b111 w
b111 [
b0 #
b0 +
b0 6
b0 a
b0 d
b0 t
b0 x
b111 Q
b111 Z
b10000000000000000000000001000000 <
b10000000000000000000000001000000 n
b10 8
b10 s
b111 3
b111 q
b111 H
b111 k
b11100000000000100010011 G
b11100000000000100010011 j
b11100000000000100010011 l
b1111 z
b10000000000000000000000001000011 :
b10000000000000000000000001000000 ;
b10000000000000000000000000111100 =
b10000000000000000000000000111100 m
b10000000000000000000000000111100 o
1%
#170000
0%
#175000
b1010 1
b1010 r
b11 R
b11 Y
b1010 9
b1010 P
b1010 \
b1010 _
b1010 c
b1010 w
b111 [
b111 #
b111 +
b111 6
b111 a
b111 d
b111 t
b111 x
b11 7
b11 u
b10 S
b10 V
b10 ^
15
0O
b111 Q
b111 Z
b10000000000000000000000001000100 <
b10000000000000000000000001000100 n
b110011 i
b11110 8
b11110 s
b10 3
b10 q
b1 4
b1 p
b110011 >
b110011 ]
bx H
bx k
b1000001000111100110011 G
b1000001000111100110011 j
b1000001000111100110011 l
bx :
b10000000000000000000000001000100 ;
b10000000000000000000000001000000 =
b10000000000000000000000001000000 m
b10000000000000000000000001000000 o
b10000 z
1%
#180000
0%
#185000
b1010 1
b1010 r
b1010 9
b0 R
b0 Y
b1010 P
b1010 \
b1010 _
b1010 c
b1010 w
b1010 [
b1010 Q
b1010 Z
b10000000000000000000000001001110 :
b1010 H
b1010 k
b0 #
b0 +
b0 6
b0 a
b0 d
b0 t
b0 x
b0 7
b0 u
1O
15
b0 S
b0 V
b0 ^
b10000000000000000000000001001000 <
b10000000000000000000000001001000 n
b10011 i
b11101 8
b11101 s
b1010 3
b1010 q
b0 4
b0 p
b10011 >
b10011 ]
b101000000000111010010011 G
b101000000000111010010011 j
b101000000000111010010011 l
b10001 z
b10000000000000000000000001001000 ;
b10000000000000000000000001000100 =
b10000000000000000000000001000100 m
b10000000000000000000000001000100 o
1%
#190000
0%
#195000
b100 1
b100 r
b100 9
b100 P
b100 \
b100 _
b100 c
b100 w
b100 [
b100 Q
b100 Z
b10000000000000000000000001001100 <
b10000000000000000000000001001100 n
b11 8
b11 s
b100 3
b100 q
b100 H
b100 k
b10000000000000110010011 G
b10000000000000110010011 j
b10000000000000110010011 l
b10000000000000000000000001001100 :
b10000000000000000000000001001100 ;
b10000000000000000000000001001000 =
b10000000000000000000000001001000 m
b10000000000000000000000001001000 o
b10010 z
1%
#200000
0%
#205000
0.
1N
b0 1
b0 r
b1010 R
b1010 Y
b0 9
b0 P
b0 \
b0 _
b0 c
b0 w
b1010 [
b110 T
b110 W
b110 X
b1010 #
b1010 +
b1010 6
b1010 a
b1010 d
b1010 t
b1010 x
b1010 7
b1010 u
b1 S
b1 V
b1 ^
1M
05
0O
b1010 Q
b1010 Z
b10000000000000000000000001010000 <
b10000000000000000000000001010000 n
b1100011 i
1K
b1 L
b1 U
b1 `
b11100 8
b11100 s
b11101 3
b11101 q
b11110 4
b11110 p
b1100011 >
b1100011 ]
b10010011100 H
b10010011100 k
b1001001110111110001111001100011 G
b1001001110111110001111001100011 j
b1001001110111110001111001100011 l
b10011 z
b10000000000000000000010011101000 :
b10000000000000000000000001010000 ;
b10000000000000000000000001001100 =
b10000000000000000000000001001100 m
b10000000000000000000000001001100 o
1%
#210000
0%
#215000
b0 1
b0 r
b0 9
b0 R
b0 Y
b0 [
1N
b0 P
b0 \
b0 _
b0 c
b0 w
b0 Q
b0 Z
b10 T
b10 W
b10 X
b0 #
b0 +
b0 6
b0 a
b0 d
b0 t
b0 x
b0 7
b0 u
1O
15
0M
b0 S
b0 V
b0 ^
b10000000000000000000000001010100 <
b10000000000000000000000001010100 n
b10011 i
0K
b0 L
b0 U
b0 `
b1 8
b1 s
b0 3
b0 q
b0 4
b0 p
b10011 >
b10011 ]
b0 H
b0 k
b10010011 G
b10010011 j
b10010011 l
b10000000000000000000000001010000 :
b10000000000000000000000001010100 ;
b10000000000000000000000001010000 =
b10000000000000000000000001010000 m
b10000000000000000000000001010000 o
b10100 z
1%
#220000
0%
#225000
b11111111111111111000000000000000 1
b11111111111111111000000000000000 r
b11111111111111111000000000000000 9
0N
b11111111111111111000000000000000 P
b11111111111111111000000000000000 \
b11111111111111111000000000000000 _
b11111111111111111000000000000000 c
b11111111111111111000000000000000 w
b0 [
b11 S
b11 V
b11 ^
15
1O
b11111111111111111000000000000000 Q
b11111111111111111000000000000000 Z
b10000000000000000000000001011000 <
b10000000000000000000000001011000 n
b110111 i
1K
b10 8
b10 s
b11111 3
b11111 q
b11111 4
b11111 p
b110111 >
b110111 ]
b11111111111111111000000000000000 H
b11111111111111111000000000000000 k
b11111111111111111000000100110111 G
b11111111111111111000000100110111 j
b11111111111111111000000100110111 l
b10101 z
b1111111111111111000000001010100 :
b10000000000000000000000001011000 ;
b10000000000000000000000001010100 =
b10000000000000000000000001010100 m
b10000000000000000000000001010100 o
1%
#230000
0%
#235000
b11111111111111111000000000000000 1
b11111111111111111000000000000000 r
b11111111111111111000000000000000 9
b11111111111111111000000000000000 P
b11111111111111111000000000000000 \
b11111111111111111000000000000000 _
b11111111111111111000000000000000 c
b11111111111111111000000000000000 w
b11111111111111111000000000000000 #
b11111111111111111000000000000000 +
b11111111111111111000000000000000 6
b11111111111111111000000000000000 a
b11111111111111111000000000000000 d
b11111111111111111000000000000000 t
b11111111111111111000000000000000 x
15
b10 S
b10 V
b10 ^
0O
b11111111111111111000000000000000 Q
b11111111111111111000000000000000 Z
b10000000000000000000000001011100 <
b10000000000000000000000001011100 n
b110011 i
0K
b11110 8
b11110 s
b10 3
b10 q
b1 4
b1 p
b110011 >
b110011 ]
bx H
bx k
b1000001000111100110011 G
b1000001000111100110011 j
b1000001000111100110011 l
bx :
b10000000000000000000000001011100 ;
b10000000000000000000000001011000 =
b10000000000000000000000001011000 m
b10000000000000000000000001011000 o
b10110 z
1%
#240000
0%
#245000
b1111111111111111000000001011100 :
b11111111111111111000000000000000 H
b11111111111111111000000000000000 k
b0 #
b0 +
b0 6
b0 a
b0 d
b0 t
b0 x
1O
15
b11 S
b11 V
b11 ^
b10000000000000000000000001100000 <
b10000000000000000000000001100000 n
b110111 i
1K
b11101 8
b11101 s
b11111 3
b11111 q
b11111 4
b11111 p
b110111 >
b110111 ]
b11111111111111111000111010110111 G
b11111111111111111000111010110111 j
b11111111111111111000111010110111 l
b10111 z
b10000000000000000000000001100000 ;
b10000000000000000000000001011100 =
b10000000000000000000000001011100 m
b10000000000000000000000001011100 o
1%
#250000
0%
#255000
b101 1
b101 r
b101 [
b100 9
b101 P
b101 \
b101 _
b101 c
b101 w
15
b0 S
b0 V
b0 ^
1O
b101 Q
b101 Z
b10000000000000000000000001100100 <
b10000000000000000000000001100100 n
b10011 i
0K
b11 8
b11 s
b101 3
b101 q
b0 4
b0 p
b10011 >
b10011 ]
b101 H
b101 k
b10100000000000110010011 G
b10100000000000110010011 j
b10100000000000110010011 l
b10000000000000000000000001100101 :
b10000000000000000000000001100100 ;
b10000000000000000000000001100000 =
b10000000000000000000000001100000 m
b10000000000000000000000001100000 o
b11000 z
1%
#260000
0%
#265000
0.
1N
b0 1
b0 r
b11111111111111111000000000000000 R
b11111111111111111000000000000000 Y
b0 9
b0 P
b0 \
b0 _
b0 c
b0 w
b0 [
b110 T
b110 W
b110 X
b11111111111111111000000000000000 #
b11111111111111111000000000000000 +
b11111111111111111000000000000000 6
b11111111111111111000000000000000 a
b11111111111111111000000000000000 d
b11111111111111111000000000000000 t
b11111111111111111000000000000000 x
b11111111111111111000000000000000 7
b11111111111111111000000000000000 u
b1 S
b1 V
b1 ^
1M
05
0O
b11111111111111111000000000000000 Q
b11111111111111111000000000000000 Z
b10000000000000000000000001101000 <
b10000000000000000000000001101000 n
b1100011 i
1K
b1 L
b1 U
b1 `
b100 8
b100 s
b11101 3
b11101 q
b11110 4
b11110 p
b1100011 >
b1100011 ]
b10010000100 H
b10010000100 k
b1001001110111110001001001100011 G
b1001001110111110001001001100011 j
b1001001110111110001001001100011 l
b11001 z
b10000000000000000000010011101000 :
b10000000000000000000000001101000 ;
b10000000000000000000000001100100 =
b10000000000000000000000001100100 m
b10000000000000000000000001100100 o
1%
#270000
0%
#275000
b10000000000000000000000000000000 1
b10000000000000000000000000000000 r
b10000000000000000000000000000000 9
0N
b10000000000000000000000000000000 P
b10000000000000000000000000000000 \
b10000000000000000000000000000000 _
b10000000000000000000000000000000 c
b10000000000000000000000000000000 w
b0 R
b0 Y
b10000000000000000000000000000000 Q
b10000000000000000000000000000000 Z
b10 T
b10 W
b10 X
b0 #
b0 +
b0 6
b0 a
b0 d
b0 t
b0 x
b0 7
b0 u
1O
15
0M
b11 S
b11 V
b11 ^
b10000000000000000000000001101100 <
b10000000000000000000000001101100 n
b110111 i
0K
b0 L
b0 U
b0 `
b1 8
b1 s
b0 3
b0 q
b0 4
b0 p
b110111 >
b110111 ]
b10000000000000000000000000000000 H
b10000000000000000000000000000000 k
b10000000000000000000000010110111 G
b10000000000000000000000010110111 j
b10000000000000000000000010110111 l
b1101000 :
b10000000000000000000000001101100 ;
b10000000000000000000000001101000 =
b10000000000000000000000001101000 m
b10000000000000000000000001101000 o
b11010 z
1%
#280000
0%
#285000
b0 1
b0 r
b0 9
1N
b0 P
b0 \
b0 _
b0 c
b0 w
15
b0 S
b0 V
b0 ^
1O
b0 Q
b0 Z
b10000000000000000000000001110000 <
b10000000000000000000000001110000 n
b10011 i
b10 8
b10 s
b10011 >
b10011 ]
b0 H
b0 k
b100010011 G
b100010011 j
b100010011 l
b11011 z
b10000000000000000000000001101100 :
b10000000000000000000000001110000 ;
b10000000000000000000000001101100 =
b10000000000000000000000001101100 m
b10000000000000000000000001101100 o
1%
#290000
0%
#295000
b10000000000000000000000000000000 1
b10000000000000000000000000000000 r
b10000000000000000000000000000000 R
b10000000000000000000000000000000 Y
b10000000000000000000000000000000 9
0N
b10000000000000000000000000000000 P
b10000000000000000000000000000000 \
b10000000000000000000000000000000 _
b10000000000000000000000000000000 c
b10000000000000000000000000000000 w
b0 [
b10000000000000000000000000000000 7
b10000000000000000000000000000000 u
b10 S
b10 V
b10 ^
15
0O
b0 Q
b0 Z
b10000000000000000000000001110100 <
b10000000000000000000000001110100 n
b110011 i
b11110 8
b11110 s
b10 3
b10 q
b1 4
b1 p
b110011 >
b110011 ]
bx H
bx k
b1000001000111100110011 G
b1000001000111100110011 j
b1000001000111100110011 l
bx :
b10000000000000000000000001110100 ;
b10000000000000000000000001110000 =
b10000000000000000000000001110000 m
b10000000000000000000000001110000 o
b11100 z
1%
#300000
0%
#305000
b0 R
b0 Y
b10000000000000000000000000000000 Q
b10000000000000000000000000000000 Z
b1110100 :
b10000000000000000000000000000000 H
b10000000000000000000000000000000 k
b0 7
b0 u
1O
15
b11 S
b11 V
b11 ^
b10000000000000000000000001111000 <
b10000000000000000000000001111000 n
b110111 i
b11101 8
b11101 s
b0 3
b0 q
b0 4
b0 p
b110111 >
b110111 ]
b10000000000000000000111010110111 G
b10000000000000000000111010110111 j
b10000000000000000000111010110111 l
b11101 z
b10000000000000000000000001111000 ;
b10000000000000000000000001110100 =
b10000000000000000000000001110100 m
b10000000000000000000000001110100 o
1%
#310000
0%
#315000
b110 1
b110 r
b110 [
b110 9
b110 P
b110 \
b110 _
b110 c
b110 w
15
b0 S
b0 V
b0 ^
1O
b110 Q
b110 Z
b10000000000000000000000001111100 <
b10000000000000000000000001111100 n
b10011 i
b11 8
b11 s
b110 3
b110 q
b10011 >
b10011 ]
b110 H
b110 k
b11000000000000110010011 G
b11000000000000110010011 j
b11000000000000110010011 l
b10000000000000000000000001111110 :
b10000000000000000000000001111100 ;
b10000000000000000000000001111000 =
b10000000000000000000000001111000 m
b10000000000000000000000001111000 o
b11110 z
1%
#320000
0%
#325000
0.
1N
b0 1
b0 r
b10000000000000000000000000000000 R
b10000000000000000000000000000000 Y
b0 9
b0 P
b0 \
b0 _
b0 c
b0 w
b0 [
b110 T
b110 W
b110 X
b10000000000000000000000000000000 #
b10000000000000000000000000000000 +
b10000000000000000000000000000000 6
b10000000000000000000000000000000 a
b10000000000000000000000000000000 d
b10000000000000000000000000000000 t
b10000000000000000000000000000000 x
b10000000000000000000000000000000 7
b10000000000000000000000000000000 u
b1 S
b1 V
b1 ^
1M
05
0O
b10000000000000000000000000000000 Q
b10000000000000000000000000000000 Z
b10000000000000000000000010000000 <
b10000000000000000000000010000000 n
b1100011 i
1K
b1 L
b1 U
b1 `
b1100 8
b1100 s
b11101 3
b11101 q
b11110 4
b11110 p
b1100011 >
b1100011 ]
b10001101100 H
b10001101100 k
b1000111110111110001011001100011 G
b1000111110111110001011001100011 j
b1000111110111110001011001100011 l
b11111 z
b10000000000000000000010011101000 :
b10000000000000000000000010000000 ;
b10000000000000000000000001111100 =
b10000000000000000000000001111100 m
b10000000000000000000000001111100 o
1%
#330000
0%
#335000
b10000000000000000000000000000000 1
b10000000000000000000000000000000 r
b10000000000000000000000000000000 9
0N
b10000000000000000000000000000000 P
b10000000000000000000000000000000 \
b10000000000000000000000000000000 _
b10000000000000000000000000000000 c
b10000000000000000000000000000000 w
b0 R
b0 Y
b10 T
b10 W
b10 X
b0 #
b0 +
b0 6
b0 a
b0 d
b0 t
b0 x
b0 7
b0 u
1O
15
0M
b11 S
b11 V
b11 ^
b10000000000000000000000010000100 <
b10000000000000000000000010000100 n
b110111 i
0K
b0 L
b0 U
b0 `
b1 8
b1 s
b0 3
b0 q
b0 4
b0 p
b110111 >
b110111 ]
b10000000000000000000000000000000 H
b10000000000000000000000000000000 k
b10000000000000000000000010110111 G
b10000000000000000000000010110111 j
b10000000000000000000000010110111 l
b10000000 :
b10000000000000000000000010000100 ;
b10000000000000000000000010000000 =
b10000000000000000000000010000000 m
b10000000000000000000000010000000 o
b100000 z
1%
#340000
0%
#345000
b11111111111111111000000000000000 1
b11111111111111111000000000000000 r
b11111111111111111000000000000000 9
b11111111111111111000000000000000 P
b11111111111111111000000000000000 \
b11111111111111111000000000000000 _
b11111111111111111000000000000000 c
b11111111111111111000000000000000 w
b11111111111111111000000000000000 Q
b11111111111111111000000000000000 Z
b10000000000000000000000010001000 <
b10000000000000000000000010001000 n
1K
b10 8
b10 s
b11111 3
b11111 q
b11111 4
b11111 p
b11111111111111111000000000000000 H
b11111111111111111000000000000000 k
b11111111111111111000000100110111 G
b11111111111111111000000100110111 j
b11111111111111111000000100110111 l
b100001 z
b1111111111111111000000010000100 :
b10000000000000000000000010001000 ;
b10000000000000000000000010000100 =
b10000000000000000000000010000100 m
b10000000000000000000000010000100 o
1%
#350000
0%
